# vtk DataFile Version 3.0
triangle
ASCII
DATASET UNSTRUCTURED_GRID
POINTS 1000 double
0.0 0.0 0
0.0 0.011111111111111112 0
0.0 0.022222222222222223 0
0.0 0.03333333333333333 0
0.0 0.044444444444444446 0
0.0 0.05555555555555556 0
0.0 0.06666666666666667 0
0.0 0.07777777777777778 0
0.0 0.08888888888888889 0
0.0 0.1 0
0.010101010101010102 0.0 0
0.010101010101010102 0.011111111111111112 0
0.010101010101010102 0.022222222222222223 0
0.010101010101010102 0.03333333333333333 0
0.010101010101010102 0.044444444444444446 0
0.010101010101010102 0.05555555555555556 0
0.010101010101010102 0.06666666666666667 0
0.010101010101010102 0.07777777777777778 0
0.010101010101010102 0.08888888888888889 0
0.010101010101010102 0.1 0
0.020202020202020204 0.0 0
0.020202020202020204 0.011111111111111112 0
0.020202020202020204 0.022222222222222223 0
0.020202020202020204 0.03333333333333333 0
0.020202020202020204 0.044444444444444446 0
0.020202020202020204 0.05555555555555556 0
0.020202020202020204 0.06666666666666667 0
0.020202020202020204 0.07777777777777778 0
0.020202020202020204 0.08888888888888889 0
0.020202020202020204 0.1 0
0.030303030303030304 0.0 0
0.030303030303030304 0.011111111111111112 0
0.030303030303030304 0.022222222222222223 0
0.030303030303030304 0.03333333333333333 0
0.030303030303030304 0.044444444444444446 0
0.030303030303030304 0.05555555555555556 0
0.030303030303030304 0.06666666666666667 0
0.030303030303030304 0.07777777777777778 0
0.030303030303030304 0.08888888888888889 0
0.030303030303030304 0.1 0
0.04040404040404041 0.0 0
0.04040404040404041 0.011111111111111112 0
0.04040404040404041 0.022222222222222223 0
0.04040404040404041 0.03333333333333333 0
0.04040404040404041 0.044444444444444446 0
0.04040404040404041 0.05555555555555556 0
0.04040404040404041 0.06666666666666667 0
0.04040404040404041 0.07777777777777778 0
0.04040404040404041 0.08888888888888889 0
0.04040404040404041 0.1 0
0.05050505050505051 0.0 0
0.05050505050505051 0.011111111111111112 0
0.05050505050505051 0.022222222222222223 0
0.05050505050505051 0.03333333333333333 0
0.05050505050505051 0.044444444444444446 0
0.05050505050505051 0.05555555555555556 0
0.05050505050505051 0.06666666666666667 0
0.05050505050505051 0.07777777777777778 0
0.05050505050505051 0.08888888888888889 0
0.05050505050505051 0.1 0
0.06060606060606061 0.0 0
0.06060606060606061 0.011111111111111112 0
0.06060606060606061 0.022222222222222223 0
0.06060606060606061 0.03333333333333333 0
0.06060606060606061 0.044444444444444446 0
0.06060606060606061 0.05555555555555556 0
0.06060606060606061 0.06666666666666667 0
0.06060606060606061 0.07777777777777778 0
0.06060606060606061 0.08888888888888889 0
0.06060606060606061 0.1 0
0.07070707070707072 0.0 0
0.07070707070707072 0.011111111111111112 0
0.07070707070707072 0.022222222222222223 0
0.07070707070707072 0.03333333333333333 0
0.07070707070707072 0.044444444444444446 0
0.07070707070707072 0.05555555555555556 0
0.07070707070707072 0.06666666666666667 0
0.07070707070707072 0.07777777777777778 0
0.07070707070707072 0.08888888888888889 0
0.07070707070707072 0.1 0
0.08080808080808081 0.0 0
0.08080808080808081 0.011111111111111112 0
0.08080808080808081 0.022222222222222223 0
0.08080808080808081 0.03333333333333333 0
0.08080808080808081 0.044444444444444446 0
0.08080808080808081 0.05555555555555556 0
0.08080808080808081 0.06666666666666667 0
0.08080808080808081 0.07777777777777778 0
0.08080808080808081 0.08888888888888889 0
0.08080808080808081 0.1 0
0.09090909090909091 0.0 0
0.09090909090909091 0.011111111111111112 0
0.09090909090909091 0.022222222222222223 0
0.09090909090909091 0.03333333333333333 0
0.09090909090909091 0.044444444444444446 0
0.09090909090909091 0.05555555555555556 0
0.09090909090909091 0.06666666666666667 0
0.09090909090909091 0.07777777777777778 0
0.09090909090909091 0.08888888888888889 0
0.09090909090909091 0.1 0
0.10101010101010102 0.0 0
0.10101010101010102 0.011111111111111112 0
0.10101010101010102 0.022222222222222223 0
0.10101010101010102 0.03333333333333333 0
0.10101010101010102 0.044444444444444446 0
0.10101010101010102 0.05555555555555556 0
0.10101010101010102 0.06666666666666667 0
0.10101010101010102 0.07777777777777778 0
0.10101010101010102 0.08888888888888889 0
0.10101010101010102 0.1 0
0.11111111111111112 0.0 0
0.11111111111111112 0.011111111111111112 0
0.11111111111111112 0.022222222222222223 0
0.11111111111111112 0.03333333333333333 0
0.11111111111111112 0.044444444444444446 0
0.11111111111111112 0.05555555555555556 0
0.11111111111111112 0.06666666666666667 0
0.11111111111111112 0.07777777777777778 0
0.11111111111111112 0.08888888888888889 0
0.11111111111111112 0.1 0
0.12121212121212122 0.0 0
0.12121212121212122 0.011111111111111112 0
0.12121212121212122 0.022222222222222223 0
0.12121212121212122 0.03333333333333333 0
0.12121212121212122 0.044444444444444446 0
0.12121212121212122 0.05555555555555556 0
0.12121212121212122 0.06666666666666667 0
0.12121212121212122 0.07777777777777778 0
0.12121212121212122 0.08888888888888889 0
0.12121212121212122 0.1 0
0.13131313131313133 0.0 0
0.13131313131313133 0.011111111111111112 0
0.13131313131313133 0.022222222222222223 0
0.13131313131313133 0.03333333333333333 0
0.13131313131313133 0.044444444444444446 0
0.13131313131313133 0.05555555555555556 0
0.13131313131313133 0.06666666666666667 0
0.13131313131313133 0.07777777777777778 0
0.13131313131313133 0.08888888888888889 0
0.13131313131313133 0.1 0
0.14141414141414144 0.0 0
0.14141414141414144 0.011111111111111112 0
0.14141414141414144 0.022222222222222223 0
0.14141414141414144 0.03333333333333333 0
0.14141414141414144 0.044444444444444446 0
0.14141414141414144 0.05555555555555556 0
0.14141414141414144 0.06666666666666667 0
0.14141414141414144 0.07777777777777778 0
0.14141414141414144 0.08888888888888889 0
0.14141414141414144 0.1 0
0.15151515151515152 0.0 0
0.15151515151515152 0.011111111111111112 0
0.15151515151515152 0.022222222222222223 0
0.15151515151515152 0.03333333333333333 0
0.15151515151515152 0.044444444444444446 0
0.15151515151515152 0.05555555555555556 0
0.15151515151515152 0.06666666666666667 0
0.15151515151515152 0.07777777777777778 0
0.15151515151515152 0.08888888888888889 0
0.15151515151515152 0.1 0
0.16161616161616163 0.0 0
0.16161616161616163 0.011111111111111112 0
0.16161616161616163 0.022222222222222223 0
0.16161616161616163 0.03333333333333333 0
0.16161616161616163 0.044444444444444446 0
0.16161616161616163 0.05555555555555556 0
0.16161616161616163 0.06666666666666667 0
0.16161616161616163 0.07777777777777778 0
0.16161616161616163 0.08888888888888889 0
0.16161616161616163 0.1 0
0.17171717171717174 0.0 0
0.17171717171717174 0.011111111111111112 0
0.17171717171717174 0.022222222222222223 0
0.17171717171717174 0.03333333333333333 0
0.17171717171717174 0.044444444444444446 0
0.17171717171717174 0.05555555555555556 0
0.17171717171717174 0.06666666666666667 0
0.17171717171717174 0.07777777777777778 0
0.17171717171717174 0.08888888888888889 0
0.17171717171717174 0.1 0
0.18181818181818182 0.0 0
0.18181818181818182 0.011111111111111112 0
0.18181818181818182 0.022222222222222223 0
0.18181818181818182 0.03333333333333333 0
0.18181818181818182 0.044444444444444446 0
0.18181818181818182 0.05555555555555556 0
0.18181818181818182 0.06666666666666667 0
0.18181818181818182 0.07777777777777778 0
0.18181818181818182 0.08888888888888889 0
0.18181818181818182 0.1 0
0.19191919191919193 0.0 0
0.19191919191919193 0.011111111111111112 0
0.19191919191919193 0.022222222222222223 0
0.19191919191919193 0.03333333333333333 0
0.19191919191919193 0.044444444444444446 0
0.19191919191919193 0.05555555555555556 0
0.19191919191919193 0.06666666666666667 0
0.19191919191919193 0.07777777777777778 0
0.19191919191919193 0.08888888888888889 0
0.19191919191919193 0.1 0
0.20202020202020204 0.0 0
0.20202020202020204 0.011111111111111112 0
0.20202020202020204 0.022222222222222223 0
0.20202020202020204 0.03333333333333333 0
0.20202020202020204 0.044444444444444446 0
0.20202020202020204 0.05555555555555556 0
0.20202020202020204 0.06666666666666667 0
0.20202020202020204 0.07777777777777778 0
0.20202020202020204 0.08888888888888889 0
0.20202020202020204 0.1 0
0.21212121212121213 0.0 0
0.21212121212121213 0.011111111111111112 0
0.21212121212121213 0.022222222222222223 0
0.21212121212121213 0.03333333333333333 0
0.21212121212121213 0.044444444444444446 0
0.21212121212121213 0.05555555555555556 0
0.21212121212121213 0.06666666666666667 0
0.21212121212121213 0.07777777777777778 0
0.21212121212121213 0.08888888888888889 0
0.21212121212121213 0.1 0
0.22222222222222224 0.0 0
0.22222222222222224 0.011111111111111112 0
0.22222222222222224 0.022222222222222223 0
0.22222222222222224 0.03333333333333333 0
0.22222222222222224 0.044444444444444446 0
0.22222222222222224 0.05555555555555556 0
0.22222222222222224 0.06666666666666667 0
0.22222222222222224 0.07777777777777778 0
0.22222222222222224 0.08888888888888889 0
0.22222222222222224 0.1 0
0.23232323232323235 0.0 0
0.23232323232323235 0.011111111111111112 0
0.23232323232323235 0.022222222222222223 0
0.23232323232323235 0.03333333333333333 0
0.23232323232323235 0.044444444444444446 0
0.23232323232323235 0.05555555555555556 0
0.23232323232323235 0.06666666666666667 0
0.23232323232323235 0.07777777777777778 0
0.23232323232323235 0.08888888888888889 0
0.23232323232323235 0.1 0
0.24242424242424243 0.0 0
0.24242424242424243 0.011111111111111112 0
0.24242424242424243 0.022222222222222223 0
0.24242424242424243 0.03333333333333333 0
0.24242424242424243 0.044444444444444446 0
0.24242424242424243 0.05555555555555556 0
0.24242424242424243 0.06666666666666667 0
0.24242424242424243 0.07777777777777778 0
0.24242424242424243 0.08888888888888889 0
0.24242424242424243 0.1 0
0.25252525252525254 0.0 0
0.25252525252525254 0.011111111111111112 0
0.25252525252525254 0.022222222222222223 0
0.25252525252525254 0.03333333333333333 0
0.25252525252525254 0.044444444444444446 0
0.25252525252525254 0.05555555555555556 0
0.25252525252525254 0.06666666666666667 0
0.25252525252525254 0.07777777777777778 0
0.25252525252525254 0.08888888888888889 0
0.25252525252525254 0.1 0
0.26262626262626265 0.0 0
0.26262626262626265 0.011111111111111112 0
0.26262626262626265 0.022222222222222223 0
0.26262626262626265 0.03333333333333333 0
0.26262626262626265 0.044444444444444446 0
0.26262626262626265 0.05555555555555556 0
0.26262626262626265 0.06666666666666667 0
0.26262626262626265 0.07777777777777778 0
0.26262626262626265 0.08888888888888889 0
0.26262626262626265 0.1 0
0.27272727272727276 0.0 0
0.27272727272727276 0.011111111111111112 0
0.27272727272727276 0.022222222222222223 0
0.27272727272727276 0.03333333333333333 0
0.27272727272727276 0.044444444444444446 0
0.27272727272727276 0.05555555555555556 0
0.27272727272727276 0.06666666666666667 0
0.27272727272727276 0.07777777777777778 0
0.27272727272727276 0.08888888888888889 0
0.27272727272727276 0.1 0
0.2828282828282829 0.0 0
0.2828282828282829 0.011111111111111112 0
0.2828282828282829 0.022222222222222223 0
0.2828282828282829 0.03333333333333333 0
0.2828282828282829 0.044444444444444446 0
0.2828282828282829 0.05555555555555556 0
0.2828282828282829 0.06666666666666667 0
0.2828282828282829 0.07777777777777778 0
0.2828282828282829 0.08888888888888889 0
0.2828282828282829 0.1 0
0.29292929292929293 0.0 0
0.29292929292929293 0.011111111111111112 0
0.29292929292929293 0.022222222222222223 0
0.29292929292929293 0.03333333333333333 0
0.29292929292929293 0.044444444444444446 0
0.29292929292929293 0.05555555555555556 0
0.29292929292929293 0.06666666666666667 0
0.29292929292929293 0.07777777777777778 0
0.29292929292929293 0.08888888888888889 0
0.29292929292929293 0.1 0
0.30303030303030304 0.0 0
0.30303030303030304 0.011111111111111112 0
0.30303030303030304 0.022222222222222223 0
0.30303030303030304 0.03333333333333333 0
0.30303030303030304 0.044444444444444446 0
0.30303030303030304 0.05555555555555556 0
0.30303030303030304 0.06666666666666667 0
0.30303030303030304 0.07777777777777778 0
0.30303030303030304 0.08888888888888889 0
0.30303030303030304 0.1 0
0.31313131313131315 0.0 0
0.31313131313131315 0.011111111111111112 0
0.31313131313131315 0.022222222222222223 0
0.31313131313131315 0.03333333333333333 0
0.31313131313131315 0.044444444444444446 0
0.31313131313131315 0.05555555555555556 0
0.31313131313131315 0.06666666666666667 0
0.31313131313131315 0.07777777777777778 0
0.31313131313131315 0.08888888888888889 0
0.31313131313131315 0.1 0
0.32323232323232326 0.0 0
0.32323232323232326 0.011111111111111112 0
0.32323232323232326 0.022222222222222223 0
0.32323232323232326 0.03333333333333333 0
0.32323232323232326 0.044444444444444446 0
0.32323232323232326 0.05555555555555556 0
0.32323232323232326 0.06666666666666667 0
0.32323232323232326 0.07777777777777778 0
0.32323232323232326 0.08888888888888889 0
0.32323232323232326 0.1 0
0.33333333333333337 0.0 0
0.33333333333333337 0.011111111111111112 0
0.33333333333333337 0.022222222222222223 0
0.33333333333333337 0.03333333333333333 0
0.33333333333333337 0.044444444444444446 0
0.33333333333333337 0.05555555555555556 0
0.33333333333333337 0.06666666666666667 0
0.33333333333333337 0.07777777777777778 0
0.33333333333333337 0.08888888888888889 0
0.33333333333333337 0.1 0
0.3434343434343435 0.0 0
0.3434343434343435 0.011111111111111112 0
0.3434343434343435 0.022222222222222223 0
0.3434343434343435 0.03333333333333333 0
0.3434343434343435 0.044444444444444446 0
0.3434343434343435 0.05555555555555556 0
0.3434343434343435 0.06666666666666667 0
0.3434343434343435 0.07777777777777778 0
0.3434343434343435 0.08888888888888889 0
0.3434343434343435 0.1 0
0.3535353535353536 0.0 0
0.3535353535353536 0.011111111111111112 0
0.3535353535353536 0.022222222222222223 0
0.3535353535353536 0.03333333333333333 0
0.3535353535353536 0.044444444444444446 0
0.3535353535353536 0.05555555555555556 0
0.3535353535353536 0.06666666666666667 0
0.3535353535353536 0.07777777777777778 0
0.3535353535353536 0.08888888888888889 0
0.3535353535353536 0.1 0
0.36363636363636365 0.0 0
0.36363636363636365 0.011111111111111112 0
0.36363636363636365 0.022222222222222223 0
0.36363636363636365 0.03333333333333333 0
0.36363636363636365 0.044444444444444446 0
0.36363636363636365 0.05555555555555556 0
0.36363636363636365 0.06666666666666667 0
0.36363636363636365 0.07777777777777778 0
0.36363636363636365 0.08888888888888889 0
0.36363636363636365 0.1 0
0.37373737373737376 0.0 0
0.37373737373737376 0.011111111111111112 0
0.37373737373737376 0.022222222222222223 0
0.37373737373737376 0.03333333333333333 0
0.37373737373737376 0.044444444444444446 0
0.37373737373737376 0.05555555555555556 0
0.37373737373737376 0.06666666666666667 0
0.37373737373737376 0.07777777777777778 0
0.37373737373737376 0.08888888888888889 0
0.37373737373737376 0.1 0
0.38383838383838387 0.0 0
0.38383838383838387 0.011111111111111112 0
0.38383838383838387 0.022222222222222223 0
0.38383838383838387 0.03333333333333333 0
0.38383838383838387 0.044444444444444446 0
0.38383838383838387 0.05555555555555556 0
0.38383838383838387 0.06666666666666667 0
0.38383838383838387 0.07777777777777778 0
0.38383838383838387 0.08888888888888889 0
0.38383838383838387 0.1 0
0.393939393939394 0.0 0
0.393939393939394 0.011111111111111112 0
0.393939393939394 0.022222222222222223 0
0.393939393939394 0.03333333333333333 0
0.393939393939394 0.044444444444444446 0
0.393939393939394 0.05555555555555556 0
0.393939393939394 0.06666666666666667 0
0.393939393939394 0.07777777777777778 0
0.393939393939394 0.08888888888888889 0
0.393939393939394 0.1 0
0.4040404040404041 0.0 0
0.4040404040404041 0.011111111111111112 0
0.4040404040404041 0.022222222222222223 0
0.4040404040404041 0.03333333333333333 0
0.4040404040404041 0.044444444444444446 0
0.4040404040404041 0.05555555555555556 0
0.4040404040404041 0.06666666666666667 0
0.4040404040404041 0.07777777777777778 0
0.4040404040404041 0.08888888888888889 0
0.4040404040404041 0.1 0
0.4141414141414142 0.0 0
0.4141414141414142 0.011111111111111112 0
0.4141414141414142 0.022222222222222223 0
0.4141414141414142 0.03333333333333333 0
0.4141414141414142 0.044444444444444446 0
0.4141414141414142 0.05555555555555556 0
0.4141414141414142 0.06666666666666667 0
0.4141414141414142 0.07777777777777778 0
0.4141414141414142 0.08888888888888889 0
0.4141414141414142 0.1 0
0.42424242424242425 0.0 0
0.42424242424242425 0.011111111111111112 0
0.42424242424242425 0.022222222222222223 0
0.42424242424242425 0.03333333333333333 0
0.42424242424242425 0.044444444444444446 0
0.42424242424242425 0.05555555555555556 0
0.42424242424242425 0.06666666666666667 0
0.42424242424242425 0.07777777777777778 0
0.42424242424242425 0.08888888888888889 0
0.42424242424242425 0.1 0
0.43434343434343436 0.0 0
0.43434343434343436 0.011111111111111112 0
0.43434343434343436 0.022222222222222223 0
0.43434343434343436 0.03333333333333333 0
0.43434343434343436 0.044444444444444446 0
0.43434343434343436 0.05555555555555556 0
0.43434343434343436 0.06666666666666667 0
0.43434343434343436 0.07777777777777778 0
0.43434343434343436 0.08888888888888889 0
0.43434343434343436 0.1 0
0.4444444444444445 0.0 0
0.4444444444444445 0.011111111111111112 0
0.4444444444444445 0.022222222222222223 0
0.4444444444444445 0.03333333333333333 0
0.4444444444444445 0.044444444444444446 0
0.4444444444444445 0.05555555555555556 0
0.4444444444444445 0.06666666666666667 0
0.4444444444444445 0.07777777777777778 0
0.4444444444444445 0.08888888888888889 0
0.4444444444444445 0.1 0
0.4545454545454546 0.0 0
0.4545454545454546 0.011111111111111112 0
0.4545454545454546 0.022222222222222223 0
0.4545454545454546 0.03333333333333333 0
0.4545454545454546 0.044444444444444446 0
0.4545454545454546 0.05555555555555556 0
0.4545454545454546 0.06666666666666667 0
0.4545454545454546 0.07777777777777778 0
0.4545454545454546 0.08888888888888889 0
0.4545454545454546 0.1 0
0.4646464646464647 0.0 0
0.4646464646464647 0.011111111111111112 0
0.4646464646464647 0.022222222222222223 0
0.4646464646464647 0.03333333333333333 0
0.4646464646464647 0.044444444444444446 0
0.4646464646464647 0.05555555555555556 0
0.4646464646464647 0.06666666666666667 0
0.4646464646464647 0.07777777777777778 0
0.4646464646464647 0.08888888888888889 0
0.4646464646464647 0.1 0
0.4747474747474748 0.0 0
0.4747474747474748 0.011111111111111112 0
0.4747474747474748 0.022222222222222223 0
0.4747474747474748 0.03333333333333333 0
0.4747474747474748 0.044444444444444446 0
0.4747474747474748 0.05555555555555556 0
0.4747474747474748 0.06666666666666667 0
0.4747474747474748 0.07777777777777778 0
0.4747474747474748 0.08888888888888889 0
0.4747474747474748 0.1 0
0.48484848484848486 0.0 0
0.48484848484848486 0.011111111111111112 0
0.48484848484848486 0.022222222222222223 0
0.48484848484848486 0.03333333333333333 0
0.48484848484848486 0.044444444444444446 0
0.48484848484848486 0.05555555555555556 0
0.48484848484848486 0.06666666666666667 0
0.48484848484848486 0.07777777777777778 0
0.48484848484848486 0.08888888888888889 0
0.48484848484848486 0.1 0
0.494949494949495 0.0 0
0.494949494949495 0.011111111111111112 0
0.494949494949495 0.022222222222222223 0
0.494949494949495 0.03333333333333333 0
0.494949494949495 0.044444444444444446 0
0.494949494949495 0.05555555555555556 0
0.494949494949495 0.06666666666666667 0
0.494949494949495 0.07777777777777778 0
0.494949494949495 0.08888888888888889 0
0.494949494949495 0.1 0
0.5050505050505051 0.0 0
0.5050505050505051 0.011111111111111112 0
0.5050505050505051 0.022222222222222223 0
0.5050505050505051 0.03333333333333333 0
0.5050505050505051 0.044444444444444446 0
0.5050505050505051 0.05555555555555556 0
0.5050505050505051 0.06666666666666667 0
0.5050505050505051 0.07777777777777778 0
0.5050505050505051 0.08888888888888889 0
0.5050505050505051 0.1 0
0.5151515151515152 0.0 0
0.5151515151515152 0.011111111111111112 0
0.5151515151515152 0.022222222222222223 0
0.5151515151515152 0.03333333333333333 0
0.5151515151515152 0.044444444444444446 0
0.5151515151515152 0.05555555555555556 0
0.5151515151515152 0.06666666666666667 0
0.5151515151515152 0.07777777777777778 0
0.5151515151515152 0.08888888888888889 0
0.5151515151515152 0.1 0
0.5252525252525253 0.0 0
0.5252525252525253 0.011111111111111112 0
0.5252525252525253 0.022222222222222223 0
0.5252525252525253 0.03333333333333333 0
0.5252525252525253 0.044444444444444446 0
0.5252525252525253 0.05555555555555556 0
0.5252525252525253 0.06666666666666667 0
0.5252525252525253 0.07777777777777778 0
0.5252525252525253 0.08888888888888889 0
0.5252525252525253 0.1 0
0.5353535353535354 0.0 0
0.5353535353535354 0.011111111111111112 0
0.5353535353535354 0.022222222222222223 0
0.5353535353535354 0.03333333333333333 0
0.5353535353535354 0.044444444444444446 0
0.5353535353535354 0.05555555555555556 0
0.5353535353535354 0.06666666666666667 0
0.5353535353535354 0.07777777777777778 0
0.5353535353535354 0.08888888888888889 0
0.5353535353535354 0.1 0
0.5454545454545455 0.0 0
0.5454545454545455 0.011111111111111112 0
0.5454545454545455 0.022222222222222223 0
0.5454545454545455 0.03333333333333333 0
0.5454545454545455 0.044444444444444446 0
0.5454545454545455 0.05555555555555556 0
0.5454545454545455 0.06666666666666667 0
0.5454545454545455 0.07777777777777778 0
0.5454545454545455 0.08888888888888889 0
0.5454545454545455 0.1 0
0.5555555555555556 0.0 0
0.5555555555555556 0.011111111111111112 0
0.5555555555555556 0.022222222222222223 0
0.5555555555555556 0.03333333333333333 0
0.5555555555555556 0.044444444444444446 0
0.5555555555555556 0.05555555555555556 0
0.5555555555555556 0.06666666666666667 0
0.5555555555555556 0.07777777777777778 0
0.5555555555555556 0.08888888888888889 0
0.5555555555555556 0.1 0
0.5656565656565657 0.0 0
0.5656565656565657 0.011111111111111112 0
0.5656565656565657 0.022222222222222223 0
0.5656565656565657 0.03333333333333333 0
0.5656565656565657 0.044444444444444446 0
0.5656565656565657 0.05555555555555556 0
0.5656565656565657 0.06666666666666667 0
0.5656565656565657 0.07777777777777778 0
0.5656565656565657 0.08888888888888889 0
0.5656565656565657 0.1 0
0.5757575757575758 0.0 0
0.5757575757575758 0.011111111111111112 0
0.5757575757575758 0.022222222222222223 0
0.5757575757575758 0.03333333333333333 0
0.5757575757575758 0.044444444444444446 0
0.5757575757575758 0.05555555555555556 0
0.5757575757575758 0.06666666666666667 0
0.5757575757575758 0.07777777777777778 0
0.5757575757575758 0.08888888888888889 0
0.5757575757575758 0.1 0
0.5858585858585859 0.0 0
0.5858585858585859 0.011111111111111112 0
0.5858585858585859 0.022222222222222223 0
0.5858585858585859 0.03333333333333333 0
0.5858585858585859 0.044444444444444446 0
0.5858585858585859 0.05555555555555556 0
0.5858585858585859 0.06666666666666667 0
0.5858585858585859 0.07777777777777778 0
0.5858585858585859 0.08888888888888889 0
0.5858585858585859 0.1 0
0.595959595959596 0.0 0
0.595959595959596 0.011111111111111112 0
0.595959595959596 0.022222222222222223 0
0.595959595959596 0.03333333333333333 0
0.595959595959596 0.044444444444444446 0
0.595959595959596 0.05555555555555556 0
0.595959595959596 0.06666666666666667 0
0.595959595959596 0.07777777777777778 0
0.595959595959596 0.08888888888888889 0
0.595959595959596 0.1 0
0.6060606060606061 0.0 0
0.6060606060606061 0.011111111111111112 0
0.6060606060606061 0.022222222222222223 0
0.6060606060606061 0.03333333333333333 0
0.6060606060606061 0.044444444444444446 0
0.6060606060606061 0.05555555555555556 0
0.6060606060606061 0.06666666666666667 0
0.6060606060606061 0.07777777777777778 0
0.6060606060606061 0.08888888888888889 0
0.6060606060606061 0.1 0
0.6161616161616162 0.0 0
0.6161616161616162 0.011111111111111112 0
0.6161616161616162 0.022222222222222223 0
0.6161616161616162 0.03333333333333333 0
0.6161616161616162 0.044444444444444446 0
0.6161616161616162 0.05555555555555556 0
0.6161616161616162 0.06666666666666667 0
0.6161616161616162 0.07777777777777778 0
0.6161616161616162 0.08888888888888889 0
0.6161616161616162 0.1 0
0.6262626262626263 0.0 0
0.6262626262626263 0.011111111111111112 0
0.6262626262626263 0.022222222222222223 0
0.6262626262626263 0.03333333333333333 0
0.6262626262626263 0.044444444444444446 0
0.6262626262626263 0.05555555555555556 0
0.6262626262626263 0.06666666666666667 0
0.6262626262626263 0.07777777777777778 0
0.6262626262626263 0.08888888888888889 0
0.6262626262626263 0.1 0
0.6363636363636365 0.0 0
0.6363636363636365 0.011111111111111112 0
0.6363636363636365 0.022222222222222223 0
0.6363636363636365 0.03333333333333333 0
0.6363636363636365 0.044444444444444446 0
0.6363636363636365 0.05555555555555556 0
0.6363636363636365 0.06666666666666667 0
0.6363636363636365 0.07777777777777778 0
0.6363636363636365 0.08888888888888889 0
0.6363636363636365 0.1 0
0.6464646464646465 0.0 0
0.6464646464646465 0.011111111111111112 0
0.6464646464646465 0.022222222222222223 0
0.6464646464646465 0.03333333333333333 0
0.6464646464646465 0.044444444444444446 0
0.6464646464646465 0.05555555555555556 0
0.6464646464646465 0.06666666666666667 0
0.6464646464646465 0.07777777777777778 0
0.6464646464646465 0.08888888888888889 0
0.6464646464646465 0.1 0
0.6565656565656566 0.0 0
0.6565656565656566 0.011111111111111112 0
0.6565656565656566 0.022222222222222223 0
0.6565656565656566 0.03333333333333333 0
0.6565656565656566 0.044444444444444446 0
0.6565656565656566 0.05555555555555556 0
0.6565656565656566 0.06666666666666667 0
0.6565656565656566 0.07777777777777778 0
0.6565656565656566 0.08888888888888889 0
0.6565656565656566 0.1 0
0.6666666666666667 0.0 0
0.6666666666666667 0.011111111111111112 0
0.6666666666666667 0.022222222222222223 0
0.6666666666666667 0.03333333333333333 0
0.6666666666666667 0.044444444444444446 0
0.6666666666666667 0.05555555555555556 0
0.6666666666666667 0.06666666666666667 0
0.6666666666666667 0.07777777777777778 0
0.6666666666666667 0.08888888888888889 0
0.6666666666666667 0.1 0
0.6767676767676768 0.0 0
0.6767676767676768 0.011111111111111112 0
0.6767676767676768 0.022222222222222223 0
0.6767676767676768 0.03333333333333333 0
0.6767676767676768 0.044444444444444446 0
0.6767676767676768 0.05555555555555556 0
0.6767676767676768 0.06666666666666667 0
0.6767676767676768 0.07777777777777778 0
0.6767676767676768 0.08888888888888889 0
0.6767676767676768 0.1 0
0.686868686868687 0.0 0
0.686868686868687 0.011111111111111112 0
0.686868686868687 0.022222222222222223 0
0.686868686868687 0.03333333333333333 0
0.686868686868687 0.044444444444444446 0
0.686868686868687 0.05555555555555556 0
0.686868686868687 0.06666666666666667 0
0.686868686868687 0.07777777777777778 0
0.686868686868687 0.08888888888888889 0
0.686868686868687 0.1 0
0.696969696969697 0.0 0
0.696969696969697 0.011111111111111112 0
0.696969696969697 0.022222222222222223 0
0.696969696969697 0.03333333333333333 0
0.696969696969697 0.044444444444444446 0
0.696969696969697 0.05555555555555556 0
0.696969696969697 0.06666666666666667 0
0.696969696969697 0.07777777777777778 0
0.696969696969697 0.08888888888888889 0
0.696969696969697 0.1 0
0.7070707070707072 0.0 0
0.7070707070707072 0.011111111111111112 0
0.7070707070707072 0.022222222222222223 0
0.7070707070707072 0.03333333333333333 0
0.7070707070707072 0.044444444444444446 0
0.7070707070707072 0.05555555555555556 0
0.7070707070707072 0.06666666666666667 0
0.7070707070707072 0.07777777777777778 0
0.7070707070707072 0.08888888888888889 0
0.7070707070707072 0.1 0
0.7171717171717172 0.0 0
0.7171717171717172 0.011111111111111112 0
0.7171717171717172 0.022222222222222223 0
0.7171717171717172 0.03333333333333333 0
0.7171717171717172 0.044444444444444446 0
0.7171717171717172 0.05555555555555556 0
0.7171717171717172 0.06666666666666667 0
0.7171717171717172 0.07777777777777778 0
0.7171717171717172 0.08888888888888889 0
0.7171717171717172 0.1 0
0.7272727272727273 0.0 0
0.7272727272727273 0.011111111111111112 0
0.7272727272727273 0.022222222222222223 0
0.7272727272727273 0.03333333333333333 0
0.7272727272727273 0.044444444444444446 0
0.7272727272727273 0.05555555555555556 0
0.7272727272727273 0.06666666666666667 0
0.7272727272727273 0.07777777777777778 0
0.7272727272727273 0.08888888888888889 0
0.7272727272727273 0.1 0
0.7373737373737375 0.0 0
0.7373737373737375 0.011111111111111112 0
0.7373737373737375 0.022222222222222223 0
0.7373737373737375 0.03333333333333333 0
0.7373737373737375 0.044444444444444446 0
0.7373737373737375 0.05555555555555556 0
0.7373737373737375 0.06666666666666667 0
0.7373737373737375 0.07777777777777778 0
0.7373737373737375 0.08888888888888889 0
0.7373737373737375 0.1 0
0.7474747474747475 0.0 0
0.7474747474747475 0.011111111111111112 0
0.7474747474747475 0.022222222222222223 0
0.7474747474747475 0.03333333333333333 0
0.7474747474747475 0.044444444444444446 0
0.7474747474747475 0.05555555555555556 0
0.7474747474747475 0.06666666666666667 0
0.7474747474747475 0.07777777777777778 0
0.7474747474747475 0.08888888888888889 0
0.7474747474747475 0.1 0
0.7575757575757577 0.0 0
0.7575757575757577 0.011111111111111112 0
0.7575757575757577 0.022222222222222223 0
0.7575757575757577 0.03333333333333333 0
0.7575757575757577 0.044444444444444446 0
0.7575757575757577 0.05555555555555556 0
0.7575757575757577 0.06666666666666667 0
0.7575757575757577 0.07777777777777778 0
0.7575757575757577 0.08888888888888889 0
0.7575757575757577 0.1 0
0.7676767676767677 0.0 0
0.7676767676767677 0.011111111111111112 0
0.7676767676767677 0.022222222222222223 0
0.7676767676767677 0.03333333333333333 0
0.7676767676767677 0.044444444444444446 0
0.7676767676767677 0.05555555555555556 0
0.7676767676767677 0.06666666666666667 0
0.7676767676767677 0.07777777777777778 0
0.7676767676767677 0.08888888888888889 0
0.7676767676767677 0.1 0
0.7777777777777778 0.0 0
0.7777777777777778 0.011111111111111112 0
0.7777777777777778 0.022222222222222223 0
0.7777777777777778 0.03333333333333333 0
0.7777777777777778 0.044444444444444446 0
0.7777777777777778 0.05555555555555556 0
0.7777777777777778 0.06666666666666667 0
0.7777777777777778 0.07777777777777778 0
0.7777777777777778 0.08888888888888889 0
0.7777777777777778 0.1 0
0.787878787878788 0.0 0
0.787878787878788 0.011111111111111112 0
0.787878787878788 0.022222222222222223 0
0.787878787878788 0.03333333333333333 0
0.787878787878788 0.044444444444444446 0
0.787878787878788 0.05555555555555556 0
0.787878787878788 0.06666666666666667 0
0.787878787878788 0.07777777777777778 0
0.787878787878788 0.08888888888888889 0
0.787878787878788 0.1 0
0.797979797979798 0.0 0
0.797979797979798 0.011111111111111112 0
0.797979797979798 0.022222222222222223 0
0.797979797979798 0.03333333333333333 0
0.797979797979798 0.044444444444444446 0
0.797979797979798 0.05555555555555556 0
0.797979797979798 0.06666666666666667 0
0.797979797979798 0.07777777777777778 0
0.797979797979798 0.08888888888888889 0
0.797979797979798 0.1 0
0.8080808080808082 0.0 0
0.8080808080808082 0.011111111111111112 0
0.8080808080808082 0.022222222222222223 0
0.8080808080808082 0.03333333333333333 0
0.8080808080808082 0.044444444444444446 0
0.8080808080808082 0.05555555555555556 0
0.8080808080808082 0.06666666666666667 0
0.8080808080808082 0.07777777777777778 0
0.8080808080808082 0.08888888888888889 0
0.8080808080808082 0.1 0
0.8181818181818182 0.0 0
0.8181818181818182 0.011111111111111112 0
0.8181818181818182 0.022222222222222223 0
0.8181818181818182 0.03333333333333333 0
0.8181818181818182 0.044444444444444446 0
0.8181818181818182 0.05555555555555556 0
0.8181818181818182 0.06666666666666667 0
0.8181818181818182 0.07777777777777778 0
0.8181818181818182 0.08888888888888889 0
0.8181818181818182 0.1 0
0.8282828282828284 0.0 0
0.8282828282828284 0.011111111111111112 0
0.8282828282828284 0.022222222222222223 0
0.8282828282828284 0.03333333333333333 0
0.8282828282828284 0.044444444444444446 0
0.8282828282828284 0.05555555555555556 0
0.8282828282828284 0.06666666666666667 0
0.8282828282828284 0.07777777777777778 0
0.8282828282828284 0.08888888888888889 0
0.8282828282828284 0.1 0
0.8383838383838385 0.0 0
0.8383838383838385 0.011111111111111112 0
0.8383838383838385 0.022222222222222223 0
0.8383838383838385 0.03333333333333333 0
0.8383838383838385 0.044444444444444446 0
0.8383838383838385 0.05555555555555556 0
0.8383838383838385 0.06666666666666667 0
0.8383838383838385 0.07777777777777778 0
0.8383838383838385 0.08888888888888889 0
0.8383838383838385 0.1 0
0.8484848484848485 0.0 0
0.8484848484848485 0.011111111111111112 0
0.8484848484848485 0.022222222222222223 0
0.8484848484848485 0.03333333333333333 0
0.8484848484848485 0.044444444444444446 0
0.8484848484848485 0.05555555555555556 0
0.8484848484848485 0.06666666666666667 0
0.8484848484848485 0.07777777777777778 0
0.8484848484848485 0.08888888888888889 0
0.8484848484848485 0.1 0
0.8585858585858587 0.0 0
0.8585858585858587 0.011111111111111112 0
0.8585858585858587 0.022222222222222223 0
0.8585858585858587 0.03333333333333333 0
0.8585858585858587 0.044444444444444446 0
0.8585858585858587 0.05555555555555556 0
0.8585858585858587 0.06666666666666667 0
0.8585858585858587 0.07777777777777778 0
0.8585858585858587 0.08888888888888889 0
0.8585858585858587 0.1 0
0.8686868686868687 0.0 0
0.8686868686868687 0.011111111111111112 0
0.8686868686868687 0.022222222222222223 0
0.8686868686868687 0.03333333333333333 0
0.8686868686868687 0.044444444444444446 0
0.8686868686868687 0.05555555555555556 0
0.8686868686868687 0.06666666666666667 0
0.8686868686868687 0.07777777777777778 0
0.8686868686868687 0.08888888888888889 0
0.8686868686868687 0.1 0
0.8787878787878789 0.0 0
0.8787878787878789 0.011111111111111112 0
0.8787878787878789 0.022222222222222223 0
0.8787878787878789 0.03333333333333333 0
0.8787878787878789 0.044444444444444446 0
0.8787878787878789 0.05555555555555556 0
0.8787878787878789 0.06666666666666667 0
0.8787878787878789 0.07777777777777778 0
0.8787878787878789 0.08888888888888889 0
0.8787878787878789 0.1 0
0.888888888888889 0.0 0
0.888888888888889 0.011111111111111112 0
0.888888888888889 0.022222222222222223 0
0.888888888888889 0.03333333333333333 0
0.888888888888889 0.044444444444444446 0
0.888888888888889 0.05555555555555556 0
0.888888888888889 0.06666666666666667 0
0.888888888888889 0.07777777777777778 0
0.888888888888889 0.08888888888888889 0
0.888888888888889 0.1 0
0.8989898989898991 0.0 0
0.8989898989898991 0.011111111111111112 0
0.8989898989898991 0.022222222222222223 0
0.8989898989898991 0.03333333333333333 0
0.8989898989898991 0.044444444444444446 0
0.8989898989898991 0.05555555555555556 0
0.8989898989898991 0.06666666666666667 0
0.8989898989898991 0.07777777777777778 0
0.8989898989898991 0.08888888888888889 0
0.8989898989898991 0.1 0
0.9090909090909092 0.0 0
0.9090909090909092 0.011111111111111112 0
0.9090909090909092 0.022222222222222223 0
0.9090909090909092 0.03333333333333333 0
0.9090909090909092 0.044444444444444446 0
0.9090909090909092 0.05555555555555556 0
0.9090909090909092 0.06666666666666667 0
0.9090909090909092 0.07777777777777778 0
0.9090909090909092 0.08888888888888889 0
0.9090909090909092 0.1 0
0.9191919191919192 0.0 0
0.9191919191919192 0.011111111111111112 0
0.9191919191919192 0.022222222222222223 0
0.9191919191919192 0.03333333333333333 0
0.9191919191919192 0.044444444444444446 0
0.9191919191919192 0.05555555555555556 0
0.9191919191919192 0.06666666666666667 0
0.9191919191919192 0.07777777777777778 0
0.9191919191919192 0.08888888888888889 0
0.9191919191919192 0.1 0
0.9292929292929294 0.0 0
0.9292929292929294 0.011111111111111112 0
0.9292929292929294 0.022222222222222223 0
0.9292929292929294 0.03333333333333333 0
0.9292929292929294 0.044444444444444446 0
0.9292929292929294 0.05555555555555556 0
0.9292929292929294 0.06666666666666667 0
0.9292929292929294 0.07777777777777778 0
0.9292929292929294 0.08888888888888889 0
0.9292929292929294 0.1 0
0.9393939393939394 0.0 0
0.9393939393939394 0.011111111111111112 0
0.9393939393939394 0.022222222222222223 0
0.9393939393939394 0.03333333333333333 0
0.9393939393939394 0.044444444444444446 0
0.9393939393939394 0.05555555555555556 0
0.9393939393939394 0.06666666666666667 0
0.9393939393939394 0.07777777777777778 0
0.9393939393939394 0.08888888888888889 0
0.9393939393939394 0.1 0
0.9494949494949496 0.0 0
0.9494949494949496 0.011111111111111112 0
0.9494949494949496 0.022222222222222223 0
0.9494949494949496 0.03333333333333333 0
0.9494949494949496 0.044444444444444446 0
0.9494949494949496 0.05555555555555556 0
0.9494949494949496 0.06666666666666667 0
0.9494949494949496 0.07777777777777778 0
0.9494949494949496 0.08888888888888889 0
0.9494949494949496 0.1 0
0.9595959595959597 0.0 0
0.9595959595959597 0.011111111111111112 0
0.9595959595959597 0.022222222222222223 0
0.9595959595959597 0.03333333333333333 0
0.9595959595959597 0.044444444444444446 0
0.9595959595959597 0.05555555555555556 0
0.9595959595959597 0.06666666666666667 0
0.9595959595959597 0.07777777777777778 0
0.9595959595959597 0.08888888888888889 0
0.9595959595959597 0.1 0
0.9696969696969697 0.0 0
0.9696969696969697 0.011111111111111112 0
0.9696969696969697 0.022222222222222223 0
0.9696969696969697 0.03333333333333333 0
0.9696969696969697 0.044444444444444446 0
0.9696969696969697 0.05555555555555556 0
0.9696969696969697 0.06666666666666667 0
0.9696969696969697 0.07777777777777778 0
0.9696969696969697 0.08888888888888889 0
0.9696969696969697 0.1 0
0.9797979797979799 0.0 0
0.9797979797979799 0.011111111111111112 0
0.9797979797979799 0.022222222222222223 0
0.9797979797979799 0.03333333333333333 0
0.9797979797979799 0.044444444444444446 0
0.9797979797979799 0.05555555555555556 0
0.9797979797979799 0.06666666666666667 0
0.9797979797979799 0.07777777777777778 0
0.9797979797979799 0.08888888888888889 0
0.9797979797979799 0.1 0
0.98989898989899 0.0 0
0.98989898989899 0.011111111111111112 0
0.98989898989899 0.022222222222222223 0
0.98989898989899 0.03333333333333333 0
0.98989898989899 0.044444444444444446 0
0.98989898989899 0.05555555555555556 0
0.98989898989899 0.06666666666666667 0
0.98989898989899 0.07777777777777778 0
0.98989898989899 0.08888888888888889 0
0.98989898989899 0.1 0
1.0 0.0 0
1.0 0.011111111111111112 0
1.0 0.022222222222222223 0
1.0 0.03333333333333333 0
1.0 0.044444444444444446 0
1.0 0.05555555555555556 0
1.0 0.06666666666666667 0
1.0 0.07777777777777778 0
1.0 0.08888888888888889 0
1.0 0.1 0
CELLS 1782 7128
3 864 865 854
3 854 865 855
3 865 856 855
3 856 865 866
3 547 558 548
3 558 547 557
3 991 980 990
3 980 991 981
3 984 993 994
3 993 984 983
3 982 983 973
3 982 973 972
3 993 982 992
3 982 993 983
3 971 982 972
3 982 971 981
3 982 991 992
3 991 982 981
3 874 885 875
3 885 874 884
3 874 865 864
3 865 874 875
3 774 763 773
3 763 774 764
3 763 772 773
3 772 763 762
3 936 945 946
3 945 936 935
3 923 934 924
3 934 923 933
3 934 945 935
3 945 934 944
3 474 483 484
3 483 474 473
3 494 483 493
3 483 494 484
3 493 483 492
3 483 482 492
3 482 491 492
3 491 482 481
3 503 494 493
3 494 503 504
3 505 514 515
3 514 505 504
3 514 503 513
3 503 514 504
3 452 463 453
3 463 452 462
3 480 491 481
3 491 480 490
3 472 463 462
3 463 472 473
3 472 483 473
3 483 472 482
3 482 472 481
3 472 471 481
3 443 452 453
3 452 443 442
3 383 394 384
3 394 383 393
3 558 559 548
3 559 549 548
3 568 579 569
3 579 568 578
3 559 568 569
3 568 559 558
3 568 558 557
3 567 568 557
3 537 526 536
3 526 537 527
3 516 525 526
3 525 516 515
3 599 589 598
3 589 588 598
3 589 579 578
3 588 589 578
3 970 980 981
3 971 970 981
3 970 961 960
3 961 970 971
3 995 985 994
3 985 984 994
3 985 976 975
3 976 985 986
3 985 995 996
3 985 996 986
3 989 998 999
3 998 989 988
3 959 948 958
3 948 959 949
3 987 978 977
3 978 987 988
3 987 997 998
3 987 998 988
3 987 976 986
3 976 987 977
3 997 987 996
3 996 987 986
3 761 772 762
3 772 761 771
3 761 750 760
3 750 761 751
3 752 761 762
3 761 752 751
3 761 770 771
3 770 761 760
3 781 770 780
3 770 781 771
3 896 906 897
3 897 906 907
3 906 917 907
3 917 906 916
3 934 925 924
3 925 934 935
3 917 926 927
3 926 917 916
3 927 926 937
3 926 936 937
3 936 926 935
3 926 925 935
3 945 955 946
3 946 955 956
3 955 964 965
3 964 955 954
3 955 945 944
3 955 944 954
3 495 494 504
3 505 495 504
3 500 491 490
3 491 500 501
3 500 510 511
3 501 500 511
3 514 524 515
3 524 525 515
3 404 394 393
3 403 404 393
3 402 413 403
3 413 402 412
3 413 404 403
3 404 413 414
3 443 432 442
3 432 443 433
3 470 480 481
3 471 470 481
3 449 448 459
3 459 448 458
3 439 448 449
3 448 439 438
3 394 395 384
3 395 385 384
3 427 417 426
3 426 417 416
3 397 398 387
3 387 398 388
3 398 389 388
3 389 398 399
3 354 365 355
3 365 354 364
3 263 253 252
3 262 263 252
3 608 609 599
3 608 599 598
3 609 608 619
3 608 618 619
3 518 529 519
3 529 518 528
3 509 518 519
3 518 509 508
3 556 546 555
3 546 545 555
3 546 537 536
3 537 546 547
3 547 546 557
3 546 556 557
3 538 547 548
3 538 537 547
3 537 538 527
3 538 528 527
3 538 549 539
3 549 538 548
3 529 538 539
3 538 529 528
3 517 526 527
3 517 516 526
3 518 517 528
3 528 517 527
3 517 508 507
3 517 518 508
3 517 506 516
3 506 517 507
3 506 495 505
3 495 506 496
3 506 505 515
3 516 506 515
3 700 691 690
3 691 700 701
3 961 950 960
3 950 961 951
3 953 964 954
3 964 953 963
3 973 962 972
3 963 962 973
3 953 962 963
3 962 953 952
3 962 971 972
3 962 961 971
3 962 952 951
3 961 962 951
3 985 974 984
3 974 985 975
3 964 974 965
3 965 974 975
3 984 974 983
3 983 974 973
3 974 964 963
3 974 963 973
3 989 979 988
3 979 978 988
3 938 947 948
3 947 938 937
3 948 947 958
3 947 957 958
3 947 936 946
3 936 947 937
3 957 947 956
3 947 946 956
3 955 966 956
3 966 955 965
3 976 966 975
3 966 965 975
3 959 968 969
3 968 959 958
3 968 979 969
3 979 968 978
3 835 825 824
3 834 835 824
3 885 876 875
3 876 885 886
3 865 876 866
3 876 865 875
3 868 879 869
3 879 868 878
3 740 750 751
3 740 751 741
3 692 691 701
3 702 692 701
3 740 731 730
3 731 740 741
3 731 720 730
3 720 731 721
3 711 700 710
3 700 711 701
3 720 711 710
3 711 720 721
3 752 742 751
3 751 742 741
3 753 742 752
3 742 753 743
3 763 753 762
3 753 752 762
3 744 753 754
3 753 744 743
3 753 763 764
3 753 764 754
3 723 714 713
3 714 723 724
3 723 734 724
3 734 723 733
3 744 734 743
3 734 733 743
3 811 802 801
3 802 811 812
3 825 814 824
3 815 814 825
3 830 840 841
3 831 830 841
3 826 815 825
3 815 826 816
3 826 817 816
3 826 827 817
3 805 814 815
3 814 805 804
3 805 815 816
3 806 805 816
3 805 806 796
3 795 805 796
3 795 786 785
3 786 795 796
3 805 794 804
3 794 805 795
3 782 772 771
3 781 782 771
3 793 782 792
3 782 793 783
3 772 782 773
3 773 782 783
3 800 791 790
3 791 800 801
3 791 780 790
3 791 781 780
3 802 791 801
3 791 802 792
3 791 782 781
3 782 791 792
3 630 640 631
3 640 641 631
3 632 623 622
3 623 632 633
3 675 664 674
3 664 675 665
3 898 897 907
3 908 898 907
3 899 898 909
3 898 908 909
3 917 918 907
3 918 908 907
3 918 919 909
3 908 918 909
3 885 895 886
3 895 896 886
3 895 885 884
3 894 895 884
3 905 895 894
3 905 894 904
3 905 906 896
3 895 905 896
3 874 883 884
3 883 874 873
3 913 923 924
3 913 924 914
3 904 913 914
3 903 913 904
3 922 913 912
3 913 922 923
3 913 902 912
3 902 913 903
3 923 932 933
3 922 932 923
3 485 474 484
3 474 485 475
3 494 485 484
3 495 485 494
3 485 476 475
3 476 485 486
3 486 485 496
3 485 495 496
3 474 464 473
3 464 463 473
3 463 464 453
3 464 454 453
3 560 551 550
3 551 560 561
3 512 521 522
3 521 512 511
3 510 521 511
3 520 521 510
3 521 520 530
3 531 521 530
3 523 512 522
3 512 523 513
3 523 514 513
3 523 524 514
3 532 523 522
3 523 532 533
3 521 532 522
3 532 521 531
3 491 502 492
3 502 491 501
3 502 501 511
3 512 502 511
3 502 493 492
3 502 503 493
3 503 502 513
3 502 512 513
3 543 534 533
3 534 543 544
3 523 534 524
3 534 523 533
3 422 413 412
3 413 422 423
3 422 432 433
3 423 422 433
3 461 472 462
3 472 461 471
3 452 461 462
3 451 461 452
3 470 461 460
3 461 470 471
3 450 461 451
3 461 450 460
3 432 441 442
3 441 432 431
3 441 452 442
3 441 451 452
3 440 441 430
3 441 431 430
3 450 441 440
3 441 450 451
3 498 509 499
3 509 498 508
3 466 457 456
3 457 466 467
3 466 476 477
3 467 466 477
3 444 443 453
3 454 444 453
3 443 444 433
3 444 434 433
3 413 424 414
3 424 413 423
3 424 423 433
3 434 424 433
3 444 435 434
3 435 444 445
3 395 386 385
3 386 395 396
3 386 397 387
3 397 386 396
3 405 415 416
3 406 405 416
3 395 405 396
3 405 406 396
3 405 404 414
3 415 405 414
3 404 405 394
3 405 395 394
3 428 417 427
3 417 428 418
3 428 439 429
3 439 428 438
3 419 428 429
3 428 419 418
3 407 398 397
3 398 407 408
3 407 417 418
3 407 418 408
3 407 397 396
3 406 407 396
3 417 407 416
3 407 406 416
3 398 409 399
3 409 398 408
3 419 409 418
3 418 409 408
3 374 383 384
3 374 373 383
3 385 374 384
3 374 385 375
3 374 365 364
3 365 374 375
3 373 363 372
3 372 363 362
3 374 363 373
3 363 374 364
3 361 372 362
3 361 371 372
3 361 360 370
3 371 361 370
3 341 332 331
3 332 341 342
3 386 376 385
3 385 376 375
3 376 386 387
3 376 387 377
3 363 353 362
3 353 352 362
3 354 353 364
3 353 363 364
3 272 263 262
3 263 272 273
3 254 243 253
3 243 254 244
3 285 284 294
3 285 294 295
3 274 285 275
3 285 274 284
3 272 283 273
3 283 272 282
3 274 283 284
3 283 274 273
3 296 285 295
3 285 296 286
3 296 295 305
3 306 296 305
3 276 286 287
3 276 287 277
3 285 276 275
3 276 285 286
3 140 131 130
3 131 140 141
3 131 120 130
3 120 131 121
3 131 122 121
3 122 131 132
3 101 90 100
3 90 101 91
3 5 4 14
3 15 5 14
3 29 38 39
3 38 29 28
3 48 38 47
3 47 38 37
3 146 135 145
3 135 146 136
3 608 617 618
3 617 608 607
3 606 617 607
3 617 606 616
3 597 608 598
3 608 597 607
3 588 597 598
3 587 597 588
3 568 577 578
3 577 568 567
3 577 588 578
3 577 587 588
3 566 567 557
3 556 566 557
3 705 704 715
3 704 714 715
3 694 704 695
3 704 705 695
3 714 704 713
3 713 704 703
3 660 670 661
3 670 671 661
3 690 681 680
3 691 681 690
3 681 670 680
3 670 681 671
3 692 681 691
3 681 692 682
3 672 681 682
3 681 672 671
3 590 600 591
3 600 601 591
3 621 632 622
3 632 621 631
3 621 620 630
3 621 630 631
3 934 943 944
3 943 934 933
3 944 943 954
3 943 953 954
3 939 948 949
3 939 938 948
3 967 976 977
3 967 966 976
3 967 957 956
3 966 967 956
3 978 967 977
3 968 967 978
3 957 967 958
3 967 968 958
3 845 854 855
3 845 844 854
3 845 835 834
3 845 834 844
3 863 874 864
3 874 863 873
3 863 864 854
3 853 863 854
3 844 843 854
3 843 853 854
3 834 843 844
3 833 843 834
3 887 896 897
3 896 887 886
3 887 876 886
3 887 877 876
3 867 856 866
3 867 857 856
3 876 867 866
3 877 867 876
3 867 858 857
3 858 867 868
3 868 867 878
3 867 877 878
3 746 757 747
3 757 746 756
3 712 713 703
3 702 712 703
3 712 702 701
3 711 712 701
3 732 742 743
3 733 732 743
3 732 731 741
3 742 732 741
3 830 821 820
3 821 830 831
3 811 821 812
3 821 822 812
3 821 810 820
3 810 821 811
3 810 811 801
3 800 810 801
3 803 802 812
3 813 803 812
3 803 793 792
3 802 803 792
3 803 814 804
3 814 803 813
3 794 803 804
3 803 794 793
3 826 836 827
3 827 836 837
3 835 836 825
3 836 826 825
3 809 818 819
3 818 809 808
3 798 799 789
3 798 789 788
3 798 809 799
3 809 798 808
3 817 807 816
3 807 806 816
3 806 807 796
3 807 797 796
3 807 818 808
3 818 807 817
3 798 807 808
3 807 798 797
3 787 786 796
3 797 787 796
3 787 798 788
3 798 787 797
3 784 774 773
3 784 773 783
3 793 784 783
3 794 784 793
3 784 795 785
3 784 794 795
3 660 651 650
3 651 660 661
3 651 640 650
3 640 651 641
3 671 662 661
3 672 662 671
3 662 651 661
3 651 662 652
3 641 642 631
3 642 632 631
3 651 642 641
3 642 651 652
3 623 613 622
3 622 613 612
3 654 664 665
3 655 654 665
3 928 927 937
3 938 928 937
3 928 917 927
3 928 918 917
3 928 939 929
3 939 928 938
3 919 928 929
3 918 928 919
3 925 915 924
3 924 915 914
3 915 905 904
3 915 904 914
3 915 926 916
3 926 915 925
3 906 915 916
3 905 915 906
3 911 922 912
3 922 911 921
3 920 911 910
3 911 920 921
3 894 893 904
3 893 903 904
3 893 894 884
3 883 893 884
3 893 902 903
3 902 893 892
3 893 882 892
3 893 883 882
3 941 950 951
3 950 941 940
3 581 592 582
3 592 581 591
3 581 580 590
3 581 590 591
3 540 541 530
3 541 531 530
3 541 540 550
3 551 541 550
3 524 535 525
3 534 535 524
3 535 534 544
3 545 535 544
3 526 535 536
3 525 535 526
3 546 535 545
3 535 546 536
3 421 420 430
3 431 421 430
3 421 410 420
3 410 421 411
3 422 421 432
3 432 421 431
3 421 422 412
3 411 421 412
3 488 489 479
3 478 488 479
3 489 488 499
3 488 498 499
3 506 497 496
3 497 506 507
3 508 497 507
3 498 497 508
3 468 459 458
3 468 469 459
3 469 468 479
3 468 478 479
3 468 457 467
3 457 468 458
3 468 467 477
3 478 468 477
3 465 474 475
3 465 464 474
3 476 465 475
3 466 465 476
3 425 426 416
3 415 425 416
3 424 425 414
3 425 415 414
3 425 424 434
3 435 425 434
3 410 401 400
3 401 410 411
3 401 390 400
3 390 401 391
3 402 401 412
3 401 411 412
3 380 381 370
3 381 371 370
3 390 381 380
3 381 390 391
3 340 341 331
3 330 340 331
3 351 340 350
3 340 351 341
3 360 351 350
3 361 351 360
3 341 351 342
3 351 352 342
3 351 361 362
3 352 351 362
3 295 304 305
3 294 304 295
3 353 343 352
3 352 343 342
3 356 345 355
3 345 356 346
3 336 345 346
3 335 345 336
3 325 335 336
3 325 336 326
3 231 220 230
3 220 231 221
3 248 259 249
3 259 248 258
3 296 297 286
3 286 297 287
3 259 268 269
3 268 259 258
3 266 276 277
3 267 266 277
3 276 266 275
3 266 265 275
3 248 257 258
3 257 248 247
3 257 268 258
3 268 257 267
3 246 257 247
3 257 246 256
3 257 266 267
3 266 257 256
3 366 365 375
3 376 366 375
3 365 366 355
3 366 356 355
3 347 336 346
3 336 347 337
3 336 327 326
3 327 336 337
3 239 248 249
3 248 239 238
3 228 229 219
3 228 219 218
3 228 239 229
3 239 228 238
3 209 208 219
3 219 208 218
3 199 208 209
3 208 199 198
3 217 228 218
3 228 217 227
3 190 191 180
3 180 191 181
3 202 193 192
3 193 202 203
3 142 131 141
3 131 142 132
3 151 140 150
3 140 151 141
3 151 142 141
3 142 151 152
3 191 182 181
3 182 191 192
3 3 13 4
3 4 13 14
3 32 33 22
3 33 23 22
3 10 1 0
3 10 11 1
3 21 32 22
3 32 21 31
3 21 20 30
3 21 30 31
3 21 10 20
3 10 21 11
3 90 81 80
3 81 90 91
3 81 70 80
3 70 81 71
3 116 106 115
3 115 106 105
3 107 106 117
3 106 116 117
3 8 19 9
3 19 8 18
3 19 18 28
3 29 19 28
3 38 27 37
3 27 38 28
3 49 38 48
3 38 49 39
3 49 48 58
3 59 49 58
3 126 137 127
3 137 126 136
3 126 127 117
3 116 126 117
3 126 135 136
3 135 126 125
3 126 116 115
3 126 115 125
3 128 139 129
3 139 128 138
3 137 128 127
3 128 137 138
3 188 199 189
3 199 188 198
3 179 188 189
3 188 179 178
3 188 197 198
3 197 188 187
3 157 168 158
3 168 157 167
3 168 169 159
3 168 159 158
3 179 168 178
3 169 168 179
3 177 188 178
3 188 177 187
3 177 168 167
3 168 177 178
3 59 68 69
3 68 59 58
3 89 88 99
3 99 88 98
3 97 106 107
3 106 97 96
3 108 109 99
3 108 99 98
3 108 97 107
3 97 108 98
3 624 613 623
3 613 624 614
3 615 625 626
3 615 626 616
3 624 615 614
3 615 624 625
3 619 628 629
3 618 628 619
3 625 636 626
3 636 625 635
3 596 597 587
3 596 587 586
3 596 606 607
3 597 596 607
3 565 556 555
3 565 566 556
3 545 554 555
3 554 545 544
3 554 565 555
3 565 554 564
3 543 554 544
3 553 554 543
3 574 565 564
3 565 574 575
3 565 576 566
3 576 565 575
3 577 576 587
3 587 576 586
3 576 577 567
3 566 576 567
3 664 673 674
3 673 664 663
3 673 684 674
3 684 673 683
3 673 662 672
3 662 673 663
3 673 672 682
3 683 673 682
3 693 704 694
3 704 693 703
3 693 684 683
3 684 693 694
3 693 692 702
3 693 702 703
3 692 693 682
3 693 683 682
3 685 694 695
3 685 684 694
3 685 675 674
3 684 685 674
3 611 600 610
3 600 611 601
3 620 611 610
3 621 611 620
3 611 621 622
3 611 622 612
3 953 942 952
3 943 942 953
3 932 942 933
3 942 943 933
3 952 942 951
3 942 941 951
3 822 823 812
3 823 813 812
3 814 823 824
3 823 814 813
3 823 834 824
3 823 833 834
3 832 831 841
3 842 832 841
3 832 821 831
3 821 832 822
3 832 843 833
3 843 832 842
3 832 823 822
3 823 832 833
3 859 868 869
3 859 858 868
3 887 888 877
3 877 888 878
3 898 888 897
3 888 887 897
3 879 888 889
3 888 879 878
3 888 899 889
3 888 898 899
3 764 765 754
3 765 755 754
3 745 744 754
3 755 745 754
3 746 745 756
3 745 755 756
3 722 711 721
3 722 712 711
3 731 722 721
3 732 722 731
3 722 723 713
3 712 722 713
3 723 722 733
3 722 732 733
3 856 846 855
3 846 845 855
3 845 846 835
3 846 836 835
3 857 846 856
3 847 846 857
3 836 846 837
3 846 847 837
3 828 829 819
3 818 828 819
3 829 828 839
3 828 838 839
3 827 828 817
3 828 818 817
3 828 827 837
3 838 828 837
3 858 848 857
3 848 847 857
3 847 848 837
3 848 838 837
3 778 787 788
3 787 778 777
3 778 767 777
3 767 778 768
3 779 778 789
3 789 778 788
3 778 779 769
3 768 778 769
3 728 738 739
3 729 728 739
3 758 767 768
3 767 758 757
3 679 668 678
3 668 679 669
3 679 688 689
3 688 679 678
3 662 653 652
3 653 662 663
3 654 653 664
3 664 653 663
3 901 902 892
3 891 901 892
3 902 901 912
3 901 911 912
3 910 901 900
3 911 901 910
3 890 901 891
3 901 890 900
3 931 920 930
3 920 931 921
3 940 931 930
3 941 931 940
3 931 932 922
3 931 922 921
3 931 942 932
3 942 931 941
3 592 593 582
3 582 593 583
3 611 602 601
3 602 611 612
3 601 602 591
3 602 592 591
3 613 602 612
3 602 613 603
3 602 593 592
3 593 602 603
3 571 560 570
3 560 571 561
3 580 571 570
3 581 571 580
3 571 581 582
3 572 571 582
3 554 563 564
3 563 554 553
3 542 541 551
3 542 551 552
3 542 532 531
3 541 542 531
3 542 553 543
3 553 542 552
3 532 542 533
3 542 543 533
3 487 488 478
3 487 478 477
3 488 487 498
3 487 497 498
3 487 476 486
3 476 487 477
3 487 486 496
3 497 487 496
3 425 436 426
3 436 425 435
3 436 435 445
3 446 436 445
3 455 446 445
3 446 455 456
3 455 466 456
3 455 465 466
3 455 444 454
3 444 455 445
3 464 455 454
3 465 455 464
3 373 382 383
3 382 373 372
3 371 382 372
3 381 382 371
3 300 301 290
3 290 301 291
3 325 334 335
3 334 325 324
3 251 262 252
3 251 261 262
3 251 250 260
3 261 251 260
3 270 271 260
3 271 261 260
3 271 272 262
3 261 271 262
3 264 274 275
3 265 264 275
3 263 264 253
3 264 254 253
3 264 263 273
3 274 264 273
3 246 255 256
3 255 246 245
3 266 255 265
3 255 266 256
3 254 255 244
3 255 245 244
3 255 264 265
3 264 255 254
3 245 235 244
3 235 234 244
3 246 235 245
3 236 235 246
3 237 246 247
3 237 236 246
3 237 227 226
3 236 237 226
3 248 237 247
3 237 248 238
3 228 237 238
3 237 228 227
3 287 278 277
3 288 278 287
3 278 267 277
3 278 268 267
3 278 289 279
3 289 278 288
3 269 278 279
3 268 278 269
3 378 389 379
3 389 378 388
3 378 387 388
3 387 378 377
3 367 376 377
3 367 366 376
3 378 367 377
3 367 378 368
3 369 378 379
3 378 369 368
3 369 359 358
3 368 369 358
3 316 325 326
3 325 316 315
3 316 306 305
3 315 316 305
3 329 328 339
3 328 338 339
3 328 327 337
3 338 328 337
3 213 202 212
3 202 213 203
3 182 171 181
3 171 182 172
3 171 180 181
3 171 170 180
3 201 190 200
3 201 191 190
3 201 202 192
3 191 201 192
3 213 204 203
3 204 213 214
3 193 183 192
3 183 182 192
3 33 44 34
3 44 33 43
3 13 24 14
3 24 13 23
3 33 24 23
3 24 33 34
3 24 15 14
3 24 25 15
3 25 24 35
3 24 34 35
3 12 3 2
3 12 13 3
3 23 12 22
3 13 12 23
3 1 12 2
3 11 12 1
3 12 21 22
3 21 12 11
3 42 33 32
3 33 42 43
3 42 53 43
3 53 42 52
3 53 44 43
3 44 53 54
3 53 63 64
3 54 53 64
3 63 62 73
3 73 62 72
3 62 53 52
3 53 62 63
3 81 82 71
3 71 82 72
3 111 120 121
3 111 110 120
3 111 101 100
3 110 111 100
3 122 111 121
3 112 111 122
3 103 114 104
3 114 103 113
3 114 115 105
3 104 114 105
3 115 114 125
3 114 124 125
3 123 112 122
3 112 123 113
3 123 114 113
3 114 123 124
3 111 102 101
3 102 111 112
3 103 102 113
3 102 112 113
3 94 103 104
3 103 94 93
3 8 17 18
3 17 8 7
3 18 17 28
3 17 27 28
3 36 47 37
3 36 46 47
3 196 197 187
3 196 187 186
3 196 207 197
3 207 196 206
3 208 207 218
3 207 217 218
3 207 208 198
3 197 207 198
3 146 147 136
3 147 137 136
3 147 146 156
3 157 147 156
3 119 118 129
3 118 128 129
3 109 118 119
3 108 118 109
3 127 118 117
3 128 118 127
3 118 107 117
3 118 108 107
3 627 617 616
3 626 627 616
3 617 627 618
3 627 628 618
3 606 605 616
3 605 615 616
3 686 685 695
3 696 686 695
3 685 686 675
3 686 676 675
3 686 696 697
3 687 686 697
3 728 727 738
3 738 727 737
3 705 706 695
3 706 696 695
3 706 705 715
3 716 706 715
3 882 881 892
3 881 891 892
3 890 881 880
3 881 890 891
3 880 881 870
3 881 871 870
3 775 784 785
3 784 775 774
3 774 775 764
3 775 765 764
3 838 849 839
3 848 849 838
3 859 849 858
3 849 848 858
3 709 718 719
3 718 709 708
3 718 729 719
3 718 728 729
3 718 727 728
3 727 718 717
3 748 738 737
3 748 737 747
3 757 748 747
3 758 748 757
3 698 687 697
3 687 698 688
3 698 709 699
3 709 698 708
3 689 698 699
3 688 698 689
3 632 643 633
3 642 643 632
3 643 642 652
3 653 643 652
3 643 653 654
3 644 643 654
3 634 623 633
3 634 624 623
3 643 634 633
3 634 643 644
3 624 634 625
3 625 634 635
3 562 563 553
3 562 553 552
3 562 551 561
3 551 562 552
3 571 562 561
3 562 571 572
3 573 582 583
3 573 572 582
3 562 573 563
3 573 562 572
3 584 573 583
3 573 584 574
3 573 574 564
3 563 573 564
3 428 437 438
3 437 428 427
3 437 427 426
3 436 437 426
3 392 402 403
3 392 403 393
3 383 392 393
3 382 392 383
3 401 392 391
3 392 401 402
3 392 381 391
3 392 382 381
3 333 332 342
3 343 333 342
3 333 322 332
3 322 333 323
3 333 334 324
3 323 333 324
3 313 322 323
3 322 313 312
3 344 353 354
3 344 343 353
3 344 333 343
3 333 344 334
3 344 354 355
3 345 344 355
3 344 345 335
3 334 344 335
3 233 243 244
3 234 233 244
3 231 222 221
3 232 222 231
3 222 213 212
3 213 222 223
3 222 233 223
3 233 222 232
3 240 241 230
3 241 231 230
3 250 241 240
3 251 241 250
3 281 292 282
3 292 281 291
3 272 281 282
3 271 281 272
3 281 280 290
3 281 290 291
3 280 281 270
3 281 271 270
3 289 298 299
3 298 289 288
3 298 309 299
3 309 298 308
3 297 298 287
3 298 288 287
3 307 296 306
3 307 297 296
3 298 307 308
3 307 298 297
3 356 357 346
3 357 347 346
3 366 357 356
3 367 357 366
3 357 367 368
3 357 368 358
3 348 349 339
3 338 348 339
3 359 348 358
3 349 348 359
3 347 348 337
3 348 338 337
3 357 348 347
3 348 357 358
3 309 318 319
3 318 309 308
3 318 329 319
3 318 328 329
3 217 216 227
3 227 216 226
3 216 207 206
3 207 216 217
3 225 235 236
3 225 236 226
3 216 225 226
3 225 216 215
3 160 161 150
3 161 151 150
3 170 161 160
3 171 161 170
3 151 161 152
3 152 161 162
3 161 171 172
3 161 172 162
3 220 211 210
3 211 220 221
3 210 211 200
3 211 201 200
3 222 211 221
3 211 222 212
3 202 211 212
3 201 211 202
3 195 196 186
3 185 195 186
3 153 152 162
3 163 153 162
3 153 142 152
3 153 143 142
3 153 144 143
3 144 153 154
3 177 176 187
3 187 176 186
3 155 146 145
3 146 155 156
3 155 144 154
3 144 155 145
3 44 45 34
3 34 45 35
3 45 44 54
3 55 45 54
3 36 45 46
3 45 36 35
3 45 56 46
3 56 45 55
3 57 48 47
3 48 57 58
3 46 57 47
3 56 57 46
3 142 133 132
3 143 133 142
3 133 122 132
3 133 123 122
3 92 81 91
3 92 82 81
3 101 92 91
3 102 92 101
3 92 102 103
3 92 103 93
3 95 104 105
3 95 94 104
3 106 95 105
3 95 106 96
3 83 73 72
3 82 83 72
3 92 83 82
3 83 92 93
3 86 95 96
3 95 86 85
3 86 75 85
3 75 86 76
3 16 5 15
3 16 6 5
3 6 16 7
3 16 17 7
3 148 157 158
3 148 147 157
3 137 148 138
3 147 148 137
3 149 148 159
3 159 148 158
3 148 139 138
3 148 149 139
3 68 78 69
3 78 79 69
3 78 88 89
3 79 78 89
3 628 638 629
3 638 639 629
3 658 668 669
3 659 658 669
3 645 636 635
3 645 646 636
3 645 634 644
3 634 645 635
3 645 654 655
3 645 644 654
3 645 656 646
3 656 645 655
3 677 688 678
3 677 687 688
3 668 677 678
3 667 677 668
3 686 677 676
3 677 686 687
3 736 746 747
3 737 736 747
3 696 707 697
3 706 707 696
3 707 706 716
3 707 716 717
3 707 698 697
3 698 707 708
3 707 718 708
3 718 707 717
3 840 850 841
3 850 851 841
3 872 883 873
3 883 872 882
3 863 872 873
3 862 872 863
3 872 881 882
3 881 872 871
3 872 861 871
3 872 862 861
3 843 852 853
3 852 843 842
3 852 863 853
3 852 862 863
3 852 842 841
3 851 852 841
3 862 852 861
3 852 851 861
3 787 776 786
3 776 787 777
3 786 776 785
3 776 775 785
3 759 768 769
3 759 758 768
3 604 613 614
3 613 604 603
3 615 604 614
3 605 604 615
3 585 576 575
3 576 585 586
3 574 585 575
3 584 585 574
3 448 447 458
3 447 457 458
3 447 448 438
3 437 447 438
3 457 447 456
3 447 446 456
3 447 436 446
3 447 437 436
3 310 301 300
3 310 311 301
3 330 321 320
3 321 330 331
3 321 310 320
3 310 321 311
3 332 321 331
3 322 321 332
3 321 322 312
3 311 321 312
3 311 302 301
3 302 311 312
3 301 302 291
3 302 292 291
3 314 323 324
3 314 313 323
3 325 314 324
3 314 325 315
3 304 314 305
3 314 315 305
3 242 251 252
3 242 241 251
3 242 232 231
3 241 242 231
3 253 242 252
3 243 242 253
3 233 242 243
3 242 233 232
3 328 317 327
3 318 317 328
3 307 317 308
3 317 318 308
3 327 317 326
3 317 316 326
3 316 317 306
3 317 307 306
3 235 224 234
3 225 224 235
3 224 225 215
3 224 215 214
3 224 233 234
3 233 224 223
3 213 224 214
3 224 213 223
3 194 195 185
3 194 185 184
3 194 183 193
3 183 194 184
3 194 193 203
3 204 194 203
3 205 216 206
3 216 205 215
3 196 205 206
3 195 205 196
3 205 204 214
3 215 205 214
3 194 205 195
3 205 194 204
3 175 185 186
3 176 175 186
3 185 175 184
3 175 174 184
3 157 166 167
3 166 157 156
3 166 177 167
3 166 176 177
3 155 166 156
3 166 155 165
3 166 175 176
3 175 166 165
3 173 183 184
3 174 173 184
3 172 173 162
3 173 163 162
3 182 173 172
3 183 173 182
3 164 153 163
3 153 164 154
3 164 173 174
3 173 164 163
3 164 155 154
3 155 164 165
3 175 164 174
3 164 175 165
3 40 41 30
3 30 41 31
3 41 40 50
3 51 41 50
3 41 32 31
3 41 42 32
3 42 41 52
3 41 51 52
3 62 61 72
3 61 71 72
3 61 62 52
3 51 61 52
3 70 61 60
3 61 70 71
3 61 50 60
3 61 51 50
3 67 78 68
3 78 67 77
3 67 68 58
3 57 67 58
3 123 134 124
3 133 134 123
3 144 134 143
3 134 133 143
3 134 135 125
3 124 134 125
3 135 134 145
3 134 144 145
3 65 54 64
3 65 55 54
3 95 84 94
3 84 95 85
3 94 84 93
3 84 83 93
3 86 87 76
3 76 87 77
3 97 87 96
3 87 86 96
3 78 87 88
3 87 78 77
3 88 87 98
3 87 97 98
3 26 25 35
3 36 26 35
3 25 26 15
3 26 16 15
3 27 26 37
3 26 36 37
3 17 26 27
3 16 26 17
3 627 637 628
3 637 638 628
3 646 637 636
3 637 646 647
3 636 637 626
3 637 627 626
3 637 648 638
3 648 637 647
3 639 648 649
3 638 648 639
3 648 659 649
3 648 658 659
3 657 648 647
3 648 657 658
3 658 657 668
3 657 667 668
3 656 657 646
3 646 657 647
3 675 666 665
3 676 666 675
3 666 655 665
3 666 656 655
3 666 677 667
3 677 666 676
3 657 666 667
3 666 657 656
3 726 727 717
3 716 726 717
3 727 726 737
3 726 736 737
3 871 860 870
3 861 860 871
3 850 860 851
3 851 860 861
3 765 766 755
3 755 766 756
3 775 766 765
3 776 766 775
3 766 757 756
3 766 767 757
3 767 766 777
3 766 776 777
3 738 749 739
3 748 749 738
3 749 748 758
3 759 749 758
3 596 595 606
3 595 605 606
3 595 596 586
3 585 595 586
3 314 303 313
3 303 314 304
3 313 303 312
3 303 302 312
3 66 57 56
3 66 67 57
3 67 66 77
3 66 76 77
3 66 56 55
3 65 66 55
3 66 75 76
3 66 65 75
3 63 74 64
3 74 63 73
3 83 74 73
3 84 74 83
3 74 65 64
3 65 74 75
3 75 74 85
3 74 84 85
3 725 714 724
3 714 725 715
3 725 716 715
3 725 726 716
3 594 585 584
3 594 595 585
3 594 604 605
3 595 594 605
3 593 594 583
3 594 584 583
3 594 593 603
3 604 594 603
3 284 293 294
3 283 293 284
3 293 304 294
3 293 303 304
3 293 283 282
3 292 293 282
3 302 293 292
3 303 293 302
3 735 734 744
3 745 735 744
3 734 735 724
3 735 725 724
3 735 745 746
3 736 735 746
3 726 735 736
3 725 735 726
CELL_TYPES 1782
5
5
5
5
5
5
5
5
5
5
5
5
5
5
5
5
5
5
5
5
5
5
5
5
5
5
5
5
5
5
5
5
5
5
5
5
5
5
5
5
5
5
5
5
5
5
5
5
5
5
5
5
5
5
5
5
5
5
5
5
5
5
5
5
5
5
5
5
5
5
5
5
5
5
5
5
5
5
5
5
5
5
5
5
5
5
5
5
5
5
5
5
5
5
5
5
5
5
5
5
5
5
5
5
5
5
5
5
5
5
5
5
5
5
5
5
5
5
5
5
5
5
5
5
5
5
5
5
5
5
5
5
5
5
5
5
5
5
5
5
5
5
5
5
5
5
5
5
5
5
5
5
5
5
5
5
5
5
5
5
5
5
5
5
5
5
5
5
5
5
5
5
5
5
5
5
5
5
5
5
5
5
5
5
5
5
5
5
5
5
5
5
5
5
5
5
5
5
5
5
5
5
5
5
5
5
5
5
5
5
5
5
5
5
5
5
5
5
5
5
5
5
5
5
5
5
5
5
5
5
5
5
5
5
5
5
5
5
5
5
5
5
5
5
5
5
5
5
5
5
5
5
5
5
5
5
5
5
5
5
5
5
5
5
5
5
5
5
5
5
5
5
5
5
5
5
5
5
5
5
5
5
5
5
5
5
5
5
5
5
5
5
5
5
5
5
5
5
5
5
5
5
5
5
5
5
5
5
5
5
5
5
5
5
5
5
5
5
5
5
5
5
5
5
5
5
5
5
5
5
5
5
5
5
5
5
5
5
5
5
5
5
5
5
5
5
5
5
5
5
5
5
5
5
5
5
5
5
5
5
5
5
5
5
5
5
5
5
5
5
5
5
5
5
5
5
5
5
5
5
5
5
5
5
5
5
5
5
5
5
5
5
5
5
5
5
5
5
5
5
5
5
5
5
5
5
5
5
5
5
5
5
5
5
5
5
5
5
5
5
5
5
5
5
5
5
5
5
5
5
5
5
5
5
5
5
5
5
5
5
5
5
5
5
5
5
5
5
5
5
5
5
5
5
5
5
5
5
5
5
5
5
5
5
5
5
5
5
5
5
5
5
5
5
5
5
5
5
5
5
5
5
5
5
5
5
5
5
5
5
5
5
5
5
5
5
5
5
5
5
5
5
5
5
5
5
5
5
5
5
5
5
5
5
5
5
5
5
5
5
5
5
5
5
5
5
5
5
5
5
5
5
5
5
5
5
5
5
5
5
5
5
5
5
5
5
5
5
5
5
5
5
5
5
5
5
5
5
5
5
5
5
5
5
5
5
5
5
5
5
5
5
5
5
5
5
5
5
5
5
5
5
5
5
5
5
5
5
5
5
5
5
5
5
5
5
5
5
5
5
5
5
5
5
5
5
5
5
5
5
5
5
5
5
5
5
5
5
5
5
5
5
5
5
5
5
5
5
5
5
5
5
5
5
5
5
5
5
5
5
5
5
5
5
5
5
5
5
5
5
5
5
5
5
5
5
5
5
5
5
5
5
5
5
5
5
5
5
5
5
5
5
5
5
5
5
5
5
5
5
5
5
5
5
5
5
5
5
5
5
5
5
5
5
5
5
5
5
5
5
5
5
5
5
5
5
5
5
5
5
5
5
5
5
5
5
5
5
5
5
5
5
5
5
5
5
5
5
5
5
5
5
5
5
5
5
5
5
5
5
5
5
5
5
5
5
5
5
5
5
5
5
5
5
5
5
5
5
5
5
5
5
5
5
5
5
5
5
5
5
5
5
5
5
5
5
5
5
5
5
5
5
5
5
5
5
5
5
5
5
5
5
5
5
5
5
5
5
5
5
5
5
5
5
5
5
5
5
5
5
5
5
5
5
5
5
5
5
5
5
5
5
5
5
5
5
5
5
5
5
5
5
5
5
5
5
5
5
5
5
5
5
5
5
5
5
5
5
5
5
5
5
5
5
5
5
5
5
5
5
5
5
5
5
5
5
5
5
5
5
5
5
5
5
5
5
5
5
5
5
5
5
5
5
5
5
5
5
5
5
5
5
5
5
5
5
5
5
5
5
5
5
5
5
5
5
5
5
5
5
5
5
5
5
5
5
5
5
5
5
5
5
5
5
5
5
5
5
5
5
5
5
5
5
5
5
5
5
5
5
5
5
5
5
5
5
5
5
5
5
5
5
5
5
5
5
5
5
5
5
5
5
5
5
5
5
5
5
5
5
5
5
5
5
5
5
5
5
5
5
5
5
5
5
5
5
5
5
5
5
5
5
5
5
5
5
5
5
5
5
5
5
5
5
5
5
5
5
5
5
5
5
5
5
5
5
5
5
5
5
5
5
5
5
5
5
5
5
5
5
5
5
5
5
5
5
5
5
5
5
5
5
5
5
5
5
5
5
5
5
5
5
5
5
5
5
5
5
5
5
5
5
5
5
5
5
5
5
5
5
5
5
5
5
5
5
5
5
5
5
5
5
5
5
5
5
5
5
5
5
5
5
5
5
5
5
5
5
5
5
5
5
5
5
5
5
5
5
5
5
5
5
5
5
5
5
5
5
5
5
5
5
5
5
5
5
5
5
5
5
5
5
5
5
5
5
5
5
5
5
5
5
5
5
5
5
5
5
5
5
5
5
5
5
5
5
5
5
5
5
5
5
5
5
5
5
5
5
5
5
5
5
5
5
5
5
5
5
5
5
5
5
5
5
5
5
5
5
5
5
5
5
5
5
5
5
5
5
5
5
5
5
5
5
5
5
5
5
5
5
5
5
5
5
5
5
5
5
5
5
5
5
5
5
5
5
5
5
5
5
5
5
5
5
5
5
5
5
5
5
5
5
5
5
5
5
5
5
5
5
5
5
5
5
5
5
5
5
5
5
5
5
5
5
5
5
5
5
5
5
5
5
5
5
5
5
5
5
5
5
5
5
5
5
5
5
5
5
5
5
5
5
5
5
5
5
5
5
5
5
5
5
5
5
5
5
5
5
5
5
5
5
5
5
5
5
5
5
5
5
5
5
5
5
5
5
5
5
5
5
5
5
5
5
5
5
5
5
5
5
5
5
5
5
5
5
5
5
5
5
5
5
5
5
5
5
5
5
5
5
5
5
5
5
5
5
5
5
5
5
5
5
5
5
5
5
5
5
5
5
5
5
5
5
5
5
5
5
5
5
5
5
5
5
5
5
5
5
5
5
5
5
5
5
5
5
5
5
5
5
5
5
5
5
5
5
5
5
5
5
5
5
5
5
5
5
5
5
5
5
5
5
5
5
5
5
5
5
5
5
5
5
5
5
5
5
5
5
5
5
5
5
5
5
5
5
5
5
5
5
5
5
5
5
5
5
5
5
5
5
5
5
5
5
5
5
5
5
5
5
5
5
5
5
5
5
5
5
5
5
5
5
5
5
5
5
5
5
5
5
5
5
5
5
5
5
5
5
5
5
5
5
5
5
5
5
5
5
5
5
5
5
5
5
5
5
5
5
5
5
5
5
5
5
5
5
5
5
5
5
5
5
5
5
5
5
5
5
5
5
5
5
5
5
5
5
5
5
5
5
5
5
5
5
5
5
5
5
5
5
5
5
5
5
5
5
5
5
5
5
5
5
5
5
5
5
5
5
5
5
5
5
5
5
5
5
5
5
5
5
5
5
5
5
5
5
5
5
5
5
5
5
5
5
5
5
5
5
5
5
5
5
5
5
5
5
5
5
5
5
5
5
5
5
5
5
5
5
5
5
5
5
5
5
5
5
5
5
5
5
5
5
5
5
5
5
5
5
5
5
5
5
5
5
5
5
5
5
5
5
5
5
5
5
5
5
5
5
5
5
5
5
5
5
5
5
5
5
5
5
5
5
5
5
5
5
5
5
5
5
5
5
5
5
5
5
5
5
5
5
5
5
5
5
5
5
5
5
5
5
5
5
5
5
5
5
5
5
5
5
5
5
5
5
5
5
5
5
5
5
5
5
5
5
5
5
5
5
5
5
5
5
5
5
5
5
5
5
5
5
5
5
5
5
5
5
5
5
5
5
5
5
5
5
5
5
5
5
5
5
5
5
CELL_DATA 1782
SCALARS index float 1
LOOKUP_TABLE default
0
1
2
3
4
5
6
7
8
9
10
11
12
13
14
15
16
17
18
19
20
21
22
23
24
25
26
27
28
29
30
31
32
33
34
35
36
37
38
39
40
41
42
43
44
45
46
47
48
49
50
51
52
53
54
55
56
57
58
59
60
61
62
63
64
65
66
67
68
69
70
71
72
73
74
75
76
77
78
79
80
81
82
83
84
85
86
87
88
89
90
91
92
93
94
95
96
97
98
99
100
101
102
103
104
105
106
107
108
109
110
111
112
113
114
115
116
117
118
119
120
121
122
123
124
125
126
127
128
129
130
131
132
133
134
135
136
137
138
139
140
141
142
143
144
145
146
147
148
149
150
151
152
153
154
155
156
157
158
159
160
161
162
163
164
165
166
167
168
169
170
171
172
173
174
175
176
177
178
179
180
181
182
183
184
185
186
187
188
189
190
191
192
193
194
195
196
197
198
199
200
201
202
203
204
205
206
207
208
209
210
211
212
213
214
215
216
217
218
219
220
221
222
223
224
225
226
227
228
229
230
231
232
233
234
235
236
237
238
239
240
241
242
243
244
245
246
247
248
249
250
251
252
253
254
255
256
257
258
259
260
261
262
263
264
265
266
267
268
269
270
271
272
273
274
275
276
277
278
279
280
281
282
283
284
285
286
287
288
289
290
291
292
293
294
295
296
297
298
299
300
301
302
303
304
305
306
307
308
309
310
311
312
313
314
315
316
317
318
319
320
321
322
323
324
325
326
327
328
329
330
331
332
333
334
335
336
337
338
339
340
341
342
343
344
345
346
347
348
349
350
351
352
353
354
355
356
357
358
359
360
361
362
363
364
365
366
367
368
369
370
371
372
373
374
375
376
377
378
379
380
381
382
383
384
385
386
387
388
389
390
391
392
393
394
395
396
397
398
399
400
401
402
403
404
405
406
407
408
409
410
411
412
413
414
415
416
417
418
419
420
421
422
423
424
425
426
427
428
429
430
431
432
433
434
435
436
437
438
439
440
441
442
443
444
445
446
447
448
449
450
451
452
453
454
455
456
457
458
459
460
461
462
463
464
465
466
467
468
469
470
471
472
473
474
475
476
477
478
479
480
481
482
483
484
485
486
487
488
489
490
491
492
493
494
495
496
497
498
499
500
501
502
503
504
505
506
507
508
509
510
511
512
513
514
515
516
517
518
519
520
521
522
523
524
525
526
527
528
529
530
531
532
533
534
535
536
537
538
539
540
541
542
543
544
545
546
547
548
549
550
551
552
553
554
555
556
557
558
559
560
561
562
563
564
565
566
567
568
569
570
571
572
573
574
575
576
577
578
579
580
581
582
583
584
585
586
587
588
589
590
591
592
593
594
595
596
597
598
599
600
601
602
603
604
605
606
607
608
609
610
611
612
613
614
615
616
617
618
619
620
621
622
623
624
625
626
627
628
629
630
631
632
633
634
635
636
637
638
639
640
641
642
643
644
645
646
647
648
649
650
651
652
653
654
655
656
657
658
659
660
661
662
663
664
665
666
667
668
669
670
671
672
673
674
675
676
677
678
679
680
681
682
683
684
685
686
687
688
689
690
691
692
693
694
695
696
697
698
699
700
701
702
703
704
705
706
707
708
709
710
711
712
713
714
715
716
717
718
719
720
721
722
723
724
725
726
727
728
729
730
731
732
733
734
735
736
737
738
739
740
741
742
743
744
745
746
747
748
749
750
751
752
753
754
755
756
757
758
759
760
761
762
763
764
765
766
767
768
769
770
771
772
773
774
775
776
777
778
779
780
781
782
783
784
785
786
787
788
789
790
791
792
793
794
795
796
797
798
799
800
801
802
803
804
805
806
807
808
809
810
811
812
813
814
815
816
817
818
819
820
821
822
823
824
825
826
827
828
829
830
831
832
833
834
835
836
837
838
839
840
841
842
843
844
845
846
847
848
849
850
851
852
853
854
855
856
857
858
859
860
861
862
863
864
865
866
867
868
869
870
871
872
873
874
875
876
877
878
879
880
881
882
883
884
885
886
887
888
889
890
891
892
893
894
895
896
897
898
899
900
901
902
903
904
905
906
907
908
909
910
911
912
913
914
915
916
917
918
919
920
921
922
923
924
925
926
927
928
929
930
931
932
933
934
935
936
937
938
939
940
941
942
943
944
945
946
947
948
949
950
951
952
953
954
955
956
957
958
959
960
961
962
963
964
965
966
967
968
969
970
971
972
973
974
975
976
977
978
979
980
981
982
983
984
985
986
987
988
989
990
991
992
993
994
995
996
997
998
999
1000
1001
1002
1003
1004
1005
1006
1007
1008
1009
1010
1011
1012
1013
1014
1015
1016
1017
1018
1019
1020
1021
1022
1023
1024
1025
1026
1027
1028
1029
1030
1031
1032
1033
1034
1035
1036
1037
1038
1039
1040
1041
1042
1043
1044
1045
1046
1047
1048
1049
1050
1051
1052
1053
1054
1055
1056
1057
1058
1059
1060
1061
1062
1063
1064
1065
1066
1067
1068
1069
1070
1071
1072
1073
1074
1075
1076
1077
1078
1079
1080
1081
1082
1083
1084
1085
1086
1087
1088
1089
1090
1091
1092
1093
1094
1095
1096
1097
1098
1099
1100
1101
1102
1103
1104
1105
1106
1107
1108
1109
1110
1111
1112
1113
1114
1115
1116
1117
1118
1119
1120
1121
1122
1123
1124
1125
1126
1127
1128
1129
1130
1131
1132
1133
1134
1135
1136
1137
1138
1139
1140
1141
1142
1143
1144
1145
1146
1147
1148
1149
1150
1151
1152
1153
1154
1155
1156
1157
1158
1159
1160
1161
1162
1163
1164
1165
1166
1167
1168
1169
1170
1171
1172
1173
1174
1175
1176
1177
1178
1179
1180
1181
1182
1183
1184
1185
1186
1187
1188
1189
1190
1191
1192
1193
1194
1195
1196
1197
1198
1199
1200
1201
1202
1203
1204
1205
1206
1207
1208
1209
1210
1211
1212
1213
1214
1215
1216
1217
1218
1219
1220
1221
1222
1223
1224
1225
1226
1227
1228
1229
1230
1231
1232
1233
1234
1235
1236
1237
1238
1239
1240
1241
1242
1243
1244
1245
1246
1247
1248
1249
1250
1251
1252
1253
1254
1255
1256
1257
1258
1259
1260
1261
1262
1263
1264
1265
1266
1267
1268
1269
1270
1271
1272
1273
1274
1275
1276
1277
1278
1279
1280
1281
1282
1283
1284
1285
1286
1287
1288
1289
1290
1291
1292
1293
1294
1295
1296
1297
1298
1299
1300
1301
1302
1303
1304
1305
1306
1307
1308
1309
1310
1311
1312
1313
1314
1315
1316
1317
1318
1319
1320
1321
1322
1323
1324
1325
1326
1327
1328
1329
1330
1331
1332
1333
1334
1335
1336
1337
1338
1339
1340
1341
1342
1343
1344
1345
1346
1347
1348
1349
1350
1351
1352
1353
1354
1355
1356
1357
1358
1359
1360
1361
1362
1363
1364
1365
1366
1367
1368
1369
1370
1371
1372
1373
1374
1375
1376
1377
1378
1379
1380
1381
1382
1383
1384
1385
1386
1387
1388
1389
1390
1391
1392
1393
1394
1395
1396
1397
1398
1399
1400
1401
1402
1403
1404
1405
1406
1407
1408
1409
1410
1411
1412
1413
1414
1415
1416
1417
1418
1419
1420
1421
1422
1423
1424
1425
1426
1427
1428
1429
1430
1431
1432
1433
1434
1435
1436
1437
1438
1439
1440
1441
1442
1443
1444
1445
1446
1447
1448
1449
1450
1451
1452
1453
1454
1455
1456
1457
1458
1459
1460
1461
1462
1463
1464
1465
1466
1467
1468
1469
1470
1471
1472
1473
1474
1475
1476
1477
1478
1479
1480
1481
1482
1483
1484
1485
1486
1487
1488
1489
1490
1491
1492
1493
1494
1495
1496
1497
1498
1499
1500
1501
1502
1503
1504
1505
1506
1507
1508
1509
1510
1511
1512
1513
1514
1515
1516
1517
1518
1519
1520
1521
1522
1523
1524
1525
1526
1527
1528
1529
1530
1531
1532
1533
1534
1535
1536
1537
1538
1539
1540
1541
1542
1543
1544
1545
1546
1547
1548
1549
1550
1551
1552
1553
1554
1555
1556
1557
1558
1559
1560
1561
1562
1563
1564
1565
1566
1567
1568
1569
1570
1571
1572
1573
1574
1575
1576
1577
1578
1579
1580
1581
1582
1583
1584
1585
1586
1587
1588
1589
1590
1591
1592
1593
1594
1595
1596
1597
1598
1599
1600
1601
1602
1603
1604
1605
1606
1607
1608
1609
1610
1611
1612
1613
1614
1615
1616
1617
1618
1619
1620
1621
1622
1623
1624
1625
1626
1627
1628
1629
1630
1631
1632
1633
1634
1635
1636
1637
1638
1639
1640
1641
1642
1643
1644
1645
1646
1647
1648
1649
1650
1651
1652
1653
1654
1655
1656
1657
1658
1659
1660
1661
1662
1663
1664
1665
1666
1667
1668
1669
1670
1671
1672
1673
1674
1675
1676
1677
1678
1679
1680
1681
1682
1683
1684
1685
1686
1687
1688
1689
1690
1691
1692
1693
1694
1695
1696
1697
1698
1699
1700
1701
1702
1703
1704
1705
1706
1707
1708
1709
1710
1711
1712
1713
1714
1715
1716
1717
1718
1719
1720
1721
1722
1723
1724
1725
1726
1727
1728
1729
1730
1731
1732
1733
1734
1735
1736
1737
1738
1739
1740
1741
1742
1743
1744
1745
1746
1747
1748
1749
1750
1751
1752
1753
1754
1755
1756
1757
1758
1759
1760
1761
1762
1763
1764
1765
1766
1767
1768
1769
1770
1771
1772
1773
1774
1775
1776
1777
1778
1779
1780
1781
