# vtk DataFile Version 2.0
Mesh
ASCII
DATASET UNSTRUCTURED_GRID
POINTS 53 float
0.0 0.0 0.0
1.0 0.0 0.0
1.0 1.0 0.0
0.0 1.0 0.0
0.0 0.0 1.0
1.0 0.0 1.0
1.0 1.0 1.0
0.0 1.0 1.0
0.3333333333333333 0.3333333333333333 0.3333333333333333
0.3333333333333333 0.3333333333333333 0.5
0.3333333333333333 0.3333333333333333 0.6666666666666667
0.3333333333333333 0.5 0.3333333333333333
0.3333333333333333 0.5 0.5
0.3333333333333333 0.5 0.6666666666666667
0.3333333333333333 0.6666666666666667 0.3333333333333333
0.3333333333333333 0.6666666666666667 0.5
0.3333333333333333 0.6666666666666667 0.6666666666666667
0.5 0.3333333333333333 0.3333333333333333
0.5 0.3333333333333333 0.5
0.5 0.3333333333333333 0.6666666666666667
0.5 0.5 0.3333333333333333
0.5 0.5 0.5
0.5 0.5 0.6666666666666667
0.5 0.6666666666666667 0.3333333333333333
0.5 0.6666666666666667 0.5
0.5 0.6666666666666667 0.6666666666666667
0.6666666666666667 0.3333333333333333 0.3333333333333333
0.6666666666666667 0.3333333333333333 0.5
0.6666666666666667 0.3333333333333333 0.6666666666666667
0.6666666666666667 0.5 0.3333333333333333
0.6666666666666667 0.5 0.5
0.6666666666666667 0.5 0.6666666666666667
0.6666666666666667 0.6666666666666667 0.3333333333333333
0.6666666666666667 0.6666666666666667 0.5
0.6666666666666667 0.6666666666666667 0.6666666666666667
0.5 0.0 0.0
1.0 0.5 0.0
0.5 1.0 0.0
0.0 0.5 0.0
0.5 0.0 1.0
1.0 0.5 1.0
0.5 1.0 1.0
0.0 0.5 1.0
0.0 0.0 0.5
1.0 0.0 0.5
1.0 1.0 0.5
0.0 1.0 0.5
0.0 0.5 0.5
0.5 0.5 0.0
0.5 1.0 0.5
1.0 0.5 0.5
0.5 0.5 1.0
0.5 0.0 0.5
CELLS 192 960
4 13 9 10 47
4 11 8 38 48
4 26 17 35 52
4 31 28 40 51
4 29 26 36 50
4 23 32 33 20
4 4 52 43 10
4 15 16 12 25
4 10 9 19 52
4 33 20 30 21
4 16 15 12 47
4 17 27 18 52
4 32 33 20 29
4 17 26 35 48
4 0 48 8 35
4 23 14 37 48
4 28 27 44 52
4 12 9 13 47
4 20 8 17 21
4 6 51 41 34
4 34 31 30 50
4 0 47 43 8
4 7 49 41 16
4 27 26 44 52
4 12 16 13 25
4 19 22 31 18
4 9 10 43 52
4 12 11 24 21
4 10 13 42 51
4 30 31 27 50
4 29 30 26 50
4 23 24 33 49
4 3 48 37 14
4 19 28 31 51
4 15 16 46 47
4 11 23 20 48
4 2 48 36 32
4 4 51 39 10
4 31 30 18 21
4 11 14 24 23
4 9 12 22 21
4 6 49 34 41
4 30 17 27 18
4 32 29 36 50
4 14 11 15 47
4 12 13 22 25
4 12 15 25 24
4 15 14 46 49
4 9 8 43 47
4 27 28 18 52
4 1 52 26 35
4 17 30 27 26
4 14 23 37 49
4 25 12 24 21
4 5 51 40 28
4 7 47 16 42
4 11 15 12 24
4 11 14 15 24
4 9 12 13 22
4 23 32 20 48
4 25 16 41 49
4 19 10 39 51
4 7 51 16 41
4 9 13 10 22
4 9 10 19 22
4 31 30 27 18
4 1 48 35 26
4 22 19 31 51
4 7 47 46 16
4 0 48 38 8
4 8 11 38 47
4 23 32 37 49
4 19 9 18 52
4 5 52 39 28
4 31 34 40 50
4 13 10 22 51
4 16 13 42 47
4 11 14 38 47
4 1 52 44 26
4 34 31 40 51
4 9 8 18 52
4 24 23 33 20
4 28 31 27 18
4 15 11 12 47
4 27 17 26 52
4 4 47 42 10
4 34 25 41 49
4 33 20 29 30
4 22 12 25 21
4 5 51 28 39
4 8 17 18 52
4 33 24 20 21
4 24 11 23 20
4 25 34 24 49
4 19 9 22 18
4 17 8 35 52
4 24 11 20 21
4 32 23 33 49
4 20 29 17 48
4 17 8 18 21
4 17 29 26 48
4 1 50 36 26
4 22 34 25 51
4 8 11 20 48
4 20 17 30 21
4 15 16 25 49
4 9 22 18 21
4 3 49 46 14
4 28 19 18 52
4 30 17 18 21
4 29 20 17 30
4 17 29 30 26
4 6 49 45 34
4 33 32 45 50
4 14 15 46 47
4 8 20 17 48
4 22 31 18 21
4 3 49 14 37
4 28 31 40 50
4 12 8 9 47
4 32 33 45 49
4 28 19 31 18
4 27 28 44 50
4 13 10 42 47
4 33 34 45 49
4 14 15 24 49
4 2 49 37 32
4 11 14 23 48
4 16 12 13 47
4 8 12 9 21
4 8 9 18 21
4 11 8 20 21
4 8 11 12 21
4 34 24 33 21
4 34 33 30 21
4 34 25 24 21
4 34 22 25 21
4 22 34 31 21
4 31 34 30 21
4 10 9 43 47
4 6 50 40 34
4 5 50 44 28
4 28 19 39 51
4 7 51 42 16
4 8 9 43 52
4 10 19 39 52
4 34 33 45 50
4 11 8 12 47
4 19 28 39 52
4 2 50 45 32
4 0 52 35 8
4 14 24 23 49
4 2 48 32 37
4 32 33 29 50
4 15 25 24 49
4 30 27 26 50
4 24 34 33 49
4 16 15 46 49
4 10 19 22 51
4 34 22 31 51
4 2 50 32 36
4 16 13 25 51
4 3 47 38 14
4 20 32 29 48
4 13 16 42 51
4 26 29 36 48
4 0 47 8 38
4 14 11 38 48
4 32 23 37 48
4 4 52 10 39
4 25 34 41 51
4 16 25 41 51
4 5 50 28 40
4 13 22 25 51
4 31 28 27 50
4 33 34 30 50
4 29 33 30 50
4 26 27 44 50
4 29 32 36 48
4 8 17 35 48
4 4 47 10 43
4 3 47 14 46
4 3 48 14 38
4 1 48 26 36
4 7 49 16 46
4 2 49 32 45
4 6 50 34 45
4 1 50 26 44
4 6 51 34 40
4 4 51 10 42
4 5 52 28 44
4 0 52 8 43
CELL_TYPES 192
10 10 10 10 10 10 10 10 10 10 10 10 10 10 10 10 10 10 10 10 10 10 10 10 10 10 10 10 10 10 10 10 10 10 10 10 10 10 10 10 10 10 10 10 10 10 10 10 10 10 10 10 10 10 10 10 10 10 10 10 10 10 10 10 10 10 10 10 10 10 10 10 10 10 10 10 10 10 10 10 10 10 10 10 10 10 10 10 10 10 10 10 10 10 10 10 10 10 10 10 10 10 10 10 10 10 10 10 10 10 10 10 10 10 10 10 10 10 10 10 10 10 10 10 10 10 10 10 10 10 10 10 10 10 10 10 10 10 10 10 10 10 10 10 10 10 10 10 10 10 10 10 10 10 10 10 10 10 10 10 10 10 10 10 10 10 10 10 10 10 10 10 10 10 10 10 10 10 10 10 10 10 10 10 10 10 10 10 10 10 10 10